%YAML 1.1
%TAG !u! tag:unity3d.com,2011:
--- !u!74 &7400000
AnimationClip:
  m_ObjectHideFlags: 0
  m_PrefabParentObject: {fileID: 0}
  m_PrefabInternal: {fileID: 0}
  m_Name: Take 001
  serializedVersion: 6
  m_Legacy: 0
  m_Compressed: 0
  m_UseHighQualityCurve: 1
  m_RotationCurves:
  - curve:
      serializedVersion: 2
      m_Curve:
      - serializedVersion: 2
        time: 0
        value: {x: 0, y: -0, z: -0, w: 1}
        inSlope: {x: -0.65995795, y: 0, z: 0, w: -0.0072598453}
        outSlope: {x: -0.65995795, y: 0, z: 0, w: -0.0072598453}
        tangentMode: 0
      - serializedVersion: 2
        time: 0.033333335
        value: {x: -0.0219986, y: 0, z: -0, w: 0.999758}
        inSlope: {x: -1.2241827, y: 0, z: 0, w: -0.0500375}
        outSlope: {x: -1.2241827, y: 0, z: 0, w: -0.0500375}
        tangentMode: 0
      - serializedVersion: 2
        time: 0.13333334
        value: {x: -0.27296764, y: 0, z: -0, w: 0.96202326}
        inSlope: {x: -3.2073798, y: 0, z: 0, w: -0.9264127}
        outSlope: {x: -3.2073798, y: 0, z: 0, w: -0.9264127}
        tangentMode: 0
      - serializedVersion: 2
        time: 0.20000002
        value: {x: -0.48723605, y: 0, z: -0, w: 0.87327033}
        inSlope: {x: -2.9230332, y: 0, z: 0, w: -1.6128889}
        outSlope: {x: -2.9230332, y: 0, z: 0, w: -1.6128889}
        tangentMode: 0
      - serializedVersion: 2
        time: 0.3
        value: {x: -0.6913804, y: 0, z: -0, w: 0.72249097}
        inSlope: {x: -0.9010113, y: -0.0000015488916, z: -0.0000015488916, w: -0.8302457}
        outSlope: {x: -0.9010113, y: -0.0000015488916, z: -0.0000015488916, w: -0.8302457}
        tangentMode: 0
      - serializedVersion: 2
        time: 0.33333334
        value: {x: -0.7071068, y: -0.00000010325944, z: -0.00000010325944, w: 0.7071068}
        inSlope: {x: 1.5291114, y: -5.2596526, z: -4.725933, w: -0.99725163}
        outSlope: {x: 1.5291114, y: -5.2596526, z: -4.725933, w: -0.99725163}
        tangentMode: 0
      - serializedVersion: 2
        time: 0.36666667
        value: {x: -0.58943963, y: -0.3506435, z: -0.3150622, w: 0.6560075}
        inSlope: {x: 10.606605, y: -12.351646, z: -8.510969, w: -10.60661}
        outSlope: {x: 10.606605, y: -12.351646, z: -8.510969, w: -10.60661}
        tangentMode: 0
      - serializedVersion: 2
        time: 0.40000004
        value: {x: 0.0000006799828, y: -0.82344353, z: -0.56739825, w: -0.0000009868332}
        inSlope: {x: 14.55574, y: -1.1176181, z: 1.6716621, w: -21.771166}
        outSlope: {x: 14.55574, y: -1.1176181, z: 1.6716621, w: -21.771166}
        tangentMode: 0
      - serializedVersion: 2
        time: 0.43333337
        value: {x: 0.38094354, y: -0.42515177, z: -0.2036183, w: -0.795404}
        inSlope: {x: 4.56332, y: 12.351646, z: 8.510972, w: -14.289003}
        outSlope: {x: 4.56332, y: 12.351646, z: 8.510972, w: -14.289003}
        tangentMode: 0
      - serializedVersion: 2
        time: 0.4666667
        value: {x: 0.304222, y: -0.00000050738606, z: -0.00000016203843, w: -0.9526012}
        inSlope: {x: -3.570537, y: -2.4368033, z: 1.458408, w: 0.09171057}
        outSlope: {x: -3.570537, y: -2.4368033, z: 1.458408, w: 0.09171057}
        tangentMode: 0
      - serializedVersion: 2
        time: 0.5
        value: {x: 0.14290789, y: -0.5876048, z: -0.106391005, w: -0.78929013}
        inSlope: {x: -4.891257, y: -13.752235, z: -0.76021767, w: 20.22116}
        outSlope: {x: -4.891257, y: -13.752235, z: -0.76021767, w: 20.22116}
        tangentMode: 0
      - serializedVersion: 2
        time: 0.53333336
        value: {x: -0.021861799, y: -0.91681594, z: -0.050681192, w: 0.395477}
        inSlope: {x: -2.1436157, y: 8.814085, z: 1.5958638, w: 26.839329}
        outSlope: {x: -2.1436157, y: 8.814085, z: 1.5958638, w: 26.839329}
        tangentMode: 0
      - serializedVersion: 2
        time: 0.5666667
        value: {x: 0.000000046075023, y: 0.0000013839718, z: -6.376653e-14, w: 1}
        inSlope: {x: 0.32792673, y: 24.81494, z: 0.76021725, w: 4.19782}
        outSlope: {x: 0.32792673, y: 24.81494, z: 0.76021725, w: 4.19782}
        tangentMode: 0
      - serializedVersion: 2
        time: 0.6
        value: {x: 3.8074867e-18, y: 0.7375134, z: 3.8074867e-18, w: 0.6753325}
        inSlope: {x: -0.000000691126, y: 14.924251, z: 9.556773e-13, w: -16.505438}
        outSlope: {x: -0.000000691126, y: 14.924251, z: 9.556773e-13, w: -16.505438}
        tangentMode: 0
      - serializedVersion: 2
        time: 0.6333334
        value: {x: 5.4777723e-17, y: 0.9949509, z: -5.4777723e-17, w: -0.100362815}
        inSlope: {x: -5.711665e-17, y: -1.0725324, z: 5.546116e-16, w: -21.319105}
        outSlope: {x: -5.711665e-17, y: -1.0725324, z: 5.546116e-16, w: -21.319105}
        tangentMode: 0
      - serializedVersion: 2
        time: 0.6666667
        value: {x: -1.9430218e-22, y: 0.6660118, z: 4.0781457e-17, w: -0.7459412}
        inSlope: {x: -8.216642e-16, y: -11.928616, z: 1.0050985e-15, w: -13.19239}
        outSlope: {x: -8.216642e-16, y: -11.928616, z: 1.0050985e-15, w: -13.19239}
        tangentMode: 0
      - serializedVersion: 2
        time: 0.70000005
        value: {x: 1.6123628e-22, y: 0.19970979, z: 1.2228732e-17, w: -0.9798551}
        inSlope: {x: 2.83644e-21, y: -9.9901705, z: -6.1172137e-16, w: -3.8108792}
        outSlope: {x: 2.83644e-21, y: -9.9901705, z: -6.1172137e-16, w: -3.8108792}
        tangentMode: 0
      - serializedVersion: 2
        time: 0.73333335
        value: {x: -5.2057282e-24, y: 0.0000002663161, z: 2.1845613e-23, w: -1}
        inSlope: {x: -1.8028226e-21, y: 4.0753164, z: 2.495379e-16, w: 1.4690173}
        outSlope: {x: -1.8028226e-21, y: 4.0753164, z: 2.495379e-16, w: 1.4690173}
        tangentMode: 0
      - serializedVersion: 2
        time: 0.7666667
        value: {x: 4.10483e-23, y: 0.47139814, z: 2.886463e-17, w: -0.8819205}
        inSlope: {x: -9.184822e-16, y: 14.999985, z: -9.184826e-16, w: 15.000021}
        outSlope: {x: -9.184822e-16, y: 14.999985, z: -9.184826e-16, w: 15.000021}
        tangentMode: 0
      - serializedVersion: 2
        time: 0.8000001
        value: {x: -6.1232204e-17, y: 1, z: -6.1232204e-17, w: 0.0000022636868}
        inSlope: {x: 1.9058241e-21, y: -0.000042438507, z: 3.494011e-21, w: 26.457634}
        outSlope: {x: 1.9058241e-21, y: -0.000042438507, z: 3.494011e-21, w: 26.457634}
        tangentMode: 0
      - serializedVersion: 2
        time: 0.8333334
        value: {x: 5.6962756e-23, y: 0.47139618, z: 2.88647e-17, w: 0.8819216}
        inSlope: {x: 9.184836e-16, y: -15.000001, z: 9.184847e-16, w: 14.999977}
        outSlope: {x: 9.184836e-16, y: -15.000001, z: 9.184847e-16, w: 14.999977}
        tangentMode: 0
      - serializedVersion: 2
        time: 0.86666673
        value: {x: -2.4808926e-23, y: 0, z: -0, w: 1}
        inSlope: {x: -8.544399e-22, y: -7.0709367, z: -4.3297013e-16, w: 1.7711747}
        outSlope: {x: -8.544399e-22, y: -7.0709367, z: -4.3297013e-16, w: 1.7711747}
        tangentMode: 0
      - serializedVersion: 2
        time: 0.90000004
        value: {x: 0, y: -0, z: -0, w: 1}
        inSlope: {x: 3.7213424e-22, y: 0, z: 0, w: 0}
        outSlope: {x: 3.7213424e-22, y: 0, z: 0, w: 0}
        tangentMode: 0
      - serializedVersion: 2
        time: 1.6666667
        value: {x: 3.7785893e-28, y: -0.000000005424151, z: -3.3213573e-25, w: 1}
        inSlope: {x: 1.13990786e-26, y: -0.034131024, z: -2.0899225e-18, w: -0.000038445032}
        outSlope: {x: 1.13990786e-26, y: -0.034131024, z: -2.0899225e-18, w: -0.000038445032}
        tangentMode: 0
      - serializedVersion: 2
        time: 2
        value: {x: -1.1041917e-26, y: -0.13075508, z: -8.00644e-18, w: 0.9914147}
        inSlope: {x: 1.1698619e-24, y: -0.4582709, z: -2.806101e-17, w: -0.06005282}
        outSlope: {x: 1.1698619e-24, y: -0.4582709, z: -2.806101e-17, w: -0.06005282}
        tangentMode: 0
      - serializedVersion: 2
        time: 2.266667
        value: {x: -9.920636e-26, y: -0.15126073, z: -9.262049e-18, w: 0.9884939}
        inSlope: {x: 1.7999459e-25, y: 0.39936575, z: 2.4454078e-17, w: 0.060398735}
        outSlope: {x: 1.7999459e-25, y: 0.39936575, z: 2.4454078e-17, w: 0.060398735}
        tangentMode: 0
      - serializedVersion: 2
        time: 2.5666668
        value: {x: 1.9572971e-25, y: 0.05084208, z: 3.1131796e-18, w: 0.9987067}
        inSlope: {x: -1.4445588e-24, y: 0.7395039, z: 4.5281548e-17, w: -0.03727738}
        outSlope: {x: -1.4445588e-24, y: 0.7395039, z: 4.5281548e-17, w: -0.03727738}
        tangentMode: 0
      - serializedVersion: 2
        time: 2.9
        value: {x: 4.994039e-26, y: 0.1623309, z: 9.9399e-18, w: 0.98673636}
        inSlope: {x: 1.1627474e-24, y: -0.39684662, z: -2.4299827e-17, w: 0.06361401}
        outSlope: {x: 1.1627474e-24, y: -0.39684662, z: -2.4299827e-17, w: 0.06361401}
        tangentMode: 0
      - serializedVersion: 2
        time: 3.1000001
        value: {x: 4.0205347e-26, y: 0.029139798, z: 1.7842983e-18, w: 0.9995754}
        inSlope: {x: -1.1321024e-24, y: -0.4376231, z: -2.6796695e-17, w: 0.013694478}
        outSlope: {x: -1.1321024e-24, y: -0.4376231, z: -2.6796695e-17, w: 0.013694478}
        tangentMode: 0
      - serializedVersion: 2
        time: 3.3333335
        value: {x: 0, y: -0, z: -0, w: 1}
        inSlope: {x: -4.423164e-26, y: 0.062207688, z: 3.8091225e-18, w: 0.000064373075}
        outSlope: {x: -4.423164e-26, y: 0.062207688, z: 3.8091225e-18, w: 0.000064373075}
        tangentMode: 0
      m_PreInfinity: 2
      m_PostInfinity: 2
      m_RotationOrder: 4
    path: 
  m_CompressedRotationCurves: []
  m_EulerCurves: []
  m_PositionCurves:
  - curve:
      serializedVersion: 2
      m_Curve:
      - serializedVersion: 2
        time: 0
        value: {x: -0.017790988, y: 0.026163034, z: 0.13343136}
        inSlope: {x: 0, y: 0, z: 0}
        outSlope: {x: 0, y: 0, z: 0}
        tangentMode: 0
      - serializedVersion: 2
        time: 1.6666666
        value: {x: -0.017790988, y: 0.026163034, z: 0.13343136}
        inSlope: {x: 0, y: 0, z: 0}
        outSlope: {x: 0, y: 0, z: 0}
        tangentMode: 0
      m_PreInfinity: 2
      m_PostInfinity: 2
      m_RotationOrder: 4
    path: 
  m_ScaleCurves:
  - curve:
      serializedVersion: 2
      m_Curve:
      - serializedVersion: 2
        time: 0
        value: {x: 0.00001, y: 0.00001, z: 0.00001}
        inSlope: {x: 0.07408632, y: 0.004120169, z: 0.07408632}
        outSlope: {x: 0.07408632, y: 0.004120169, z: 0.07408632}
        tangentMode: 0
      - serializedVersion: 2
        time: 0.033333335
        value: {x: 0.0024795444, y: 0.00014733899, z: 0.0024795444}
        inSlope: {x: 0.14116448, y: 0.009451601, z: 0.14116448}
        outSlope: {x: 0.14116448, y: 0.009451601, z: 0.14116448}
        tangentMode: 0
      - serializedVersion: 2
        time: 0.06666667
        value: {x: 0.009420967, y: 0.0006401068, z: 0.009420967}
        inSlope: {x: 0.2648086, y: 0.021931365, z: 0.2648086}
        outSlope: {x: 0.2648086, y: 0.021931365, z: 0.2648086}
        tangentMode: 0
      - serializedVersion: 2
        time: 0.13333334
        value: {x: 0.033916183, y: 0.003176435, z: 0.033916183}
        inSlope: {x: 0.44902328, y: 0.057792258, z: 0.44902328}
        outSlope: {x: 0.44902328, y: 0.057792258, z: 0.44902328}
        tangentMode: 0
      - serializedVersion: 2
        time: 0.3
        value: {x: 0.1243549, y: 0.0242161, z: 0.1243549}
        inSlope: {x: 0.54163104, y: 0.21103582, z: 0.54163104}
        outSlope: {x: 0.54163104, y: 0.21103582, z: 0.54163104}
        tangentMode: 0
      - serializedVersion: 2
        time: 0.33333334
        value: {x: 0.14184195, y: 0.031912852, z: 0.14184195}
        inSlope: {x: 0.564042, y: 0.3576348, z: 0.564042}
        outSlope: {x: 0.564042, y: 0.3576348, z: 0.564042}
        tangentMode: 0
      - serializedVersion: 2
        time: 0.36666667
        value: {x: 0.1619577, y: 0.04805842, z: 0.1619577}
        inSlope: {x: 0.6771741, y: 0.67867255, z: 0.6771741}
        outSlope: {x: 0.6771741, y: 0.67867255, z: 0.6771741}
        tangentMode: 0
      - serializedVersion: 2
        time: 0.53333336
        value: {x: 0.2778605, y: 0.24692853, z: 0.2778605}
        inSlope: {x: 0.319614, y: 1.1936677, z: 0.319614}
        outSlope: {x: 0.319614, y: 1.1936677, z: 0.319614}
        tangentMode: 0
      - serializedVersion: 2
        time: 0.6
        value: {x: 0.28367388, y: 0.32165506, z: 0.28367388}
        inSlope: {x: 0, y: 1.2078238, z: 0}
        outSlope: {x: 0, y: 1.2078238, z: 0}
        tangentMode: 0
      - serializedVersion: 2
        time: 0.73333335
        value: {x: 0.28367388, y: 0.42110232, z: 0.28367388}
        inSlope: {x: -0.00000044703447, y: -0.5779602, z: -0.00000044703447}
        outSlope: {x: -0.00000044703447, y: -0.5779602, z: -0.00000044703447}
        tangentMode: 0
      - serializedVersion: 2
        time: 0.8000001
        value: {x: 0.28367388, y: 0.33096507, z: 0.28367388}
        inSlope: {x: 0.00000044703447, y: -1.522825, z: 0.00000044703447}
        outSlope: {x: 0.00000044703447, y: -1.522825, z: 0.00000044703447}
        tangentMode: 0
      - serializedVersion: 2
        time: 0.8333334
        value: {x: 0.28367388, y: 0.28367385, z: 0.28367388}
        inSlope: {x: 0, y: -1.1978891, z: 0}
        outSlope: {x: 0, y: -1.1978891, z: 0}
        tangentMode: 0
      - serializedVersion: 2
        time: 0.86666673
        value: {x: 0.28367388, y: 0.25110582, z: 0.28367388}
        inSlope: {x: 0, y: -0.85384274, z: 0}
        outSlope: {x: 0, y: -0.85384274, z: 0}
        tangentMode: 0
      - serializedVersion: 2
        time: 0.9333334
        value: {x: 0.28367385, y: 0.2182886, z: 0.28367385}
        inSlope: {x: -0.00000044703447, y: -0.0077359453, z: -0.00000044703447}
        outSlope: {x: -0.00000044703447, y: -0.0077359453, z: -0.00000044703447}
        tangentMode: 0
      - serializedVersion: 2
        time: 1.0666667
        value: {x: 0.28367388, y: 0.27931035, z: 0.28367388}
        inSlope: {x: 0, y: 0.30008626, z: 0}
        outSlope: {x: 0, y: 0.30008626, z: 0}
        tangentMode: 0
      - serializedVersion: 2
        time: 1.1333334
        value: {x: 0.28367388, y: 0.27454945, z: 0.28367388}
        inSlope: {x: 0, y: -0.3727098, z: 0}
        outSlope: {x: 0, y: -0.3727098, z: 0}
        tangentMode: 0
      - serializedVersion: 2
        time: 1.2333333
        value: {x: 0.28367388, y: 0.23448709, z: 0.28367388}
        inSlope: {x: -0.00000044703367, y: -0.14963202, z: -0.00000044703367}
        outSlope: {x: -0.00000044703367, y: -0.14963202, z: -0.00000044703367}
        tangentMode: 0
      - serializedVersion: 2
        time: 1.3333334
        value: {x: 0.28367388, y: 0.24600913, z: 0.28367388}
        inSlope: {x: 0, y: 0.4147525, z: 0}
        outSlope: {x: 0, y: 0.4147525, z: 0}
        tangentMode: 0
      - serializedVersion: 2
        time: 1.4000001
        value: {x: 0.28367388, y: 0.2836739, z: 0.28367388}
        inSlope: {x: 0, y: 0.46387106, z: 0}
        outSlope: {x: 0, y: 0.46387106, z: 0}
        tangentMode: 0
      - serializedVersion: 2
        time: 1.6666667
        value: {x: 0.28367388, y: 0.28367388, z: 0.28367388}
        inSlope: {x: 0, y: -0.024717474, z: 0}
        outSlope: {x: 0, y: -0.024717474, z: 0}
        tangentMode: 0
      - serializedVersion: 2
        time: 2.0333335
        value: {x: 0.28367388, y: 0.28367388, z: 0.28367388}
        inSlope: {x: 0, y: 0, z: 0}
        outSlope: {x: 0, y: 0, z: 0}
        tangentMode: 0
      - serializedVersion: 2
        time: 3.3333335
        value: {x: 0.28367388, y: 0.28367388, z: 0.28367388}
        inSlope: {x: 0, y: 0, z: 0}
        outSlope: {x: 0, y: 0, z: 0}
        tangentMode: 0
      m_PreInfinity: 2
      m_PostInfinity: 2
      m_RotationOrder: 4
    path: 
  m_FloatCurves: []
  m_PPtrCurves: []
  m_SampleRate: 30
  m_WrapMode: 0
  m_Bounds:
    m_Center: {x: 0, y: 0, z: 0}
    m_Extent: {x: 0, y: 0, z: 0}
  m_ClipBindingConstant:
    genericBindings: []
    pptrCurveMapping: []
  m_AnimationClipSettings:
    serializedVersion: 2
    m_AdditiveReferencePoseClip: {fileID: 0}
    m_AdditiveReferencePoseTime: 0
    m_StartTime: 0
    m_StopTime: 3.3333335
    m_OrientationOffsetY: 0
    m_Level: 0
    m_CycleOffset: 0
    m_HasAdditiveReferencePose: 0
    m_LoopTime: 0
    m_LoopBlend: 0
    m_LoopBlendOrientation: 0
    m_LoopBlendPositionY: 0
    m_LoopBlendPositionXZ: 0
    m_KeepOriginalOrientation: 0
    m_KeepOriginalPositionY: 1
    m_KeepOriginalPositionXZ: 0
    m_HeightFromFeet: 0
    m_Mirror: 0
  m_EditorCurves: []
  m_EulerEditorCurves: []
  m_HasGenericRootTransform: 1
  m_HasMotionFloatCurves: 0
  m_GenerateMotionCurves: 0
  m_Events: []
