%YAML 1.1
%TAG !u! tag:unity3d.com,2011:
--- !u!114 &11400000
MonoBehaviour:
  m_ObjectHideFlags: 0
  m_PrefabParentObject: {fileID: 0}
  m_PrefabInternal: {fileID: 0}
  m_GameObject: {fileID: 0}
  m_Enabled: 1
  m_EditorHideFlags: 0
  m_Script: {fileID: 11500000, guid: bf83ec29189d048f189c0a9288eeceb2, type: 3}
  m_Name: AssetBundleDataName
  m_EditorClassIdentifier: 
  dataExtension:
  - reproduction_by_seed
