%YAML 1.1
%TAG !u! tag:unity3d.com,2011:
--- !u!1045 &1
EditorBuildSettings:
  m_ObjectHideFlags: 0
  serializedVersion: 2
  m_Scenes:
  - enabled: 1
    path: Assets/Reproduction by seed/Scenes/Seeds.unity
    guid: 0cb1ea8ee0a49481f9170786ac197b73
