%YAML 1.1
%TAG !u! tag:unity3d.com,2011:
--- !u!74 &7400000
AnimationClip:
  m_ObjectHideFlags: 0
  m_PrefabParentObject: {fileID: 0}
  m_PrefabInternal: {fileID: 0}
  m_Name: Seeds
  serializedVersion: 6
  m_Legacy: 0
  m_Compressed: 0
  m_UseHighQualityCurve: 1
  m_RotationCurves:
  - curve:
      serializedVersion: 2
      m_Curve:
      - serializedVersion: 2
        time: 0
        value: {x: -0.7071068, y: 0, z: -0, w: 0.7071068}
        inSlope: {x: 0, y: 0, z: 0, w: 0}
        outSlope: {x: 0, y: 0, z: 0, w: 0}
        tangentMode: 0
      - serializedVersion: 2
        time: 2.766667
        value: {x: -0.7071068, y: 0, z: -0, w: 0.7071068}
        inSlope: {x: 0, y: 0, z: 0, w: 0}
        outSlope: {x: 0, y: 0, z: 0, w: 0}
        tangentMode: 0
      m_PreInfinity: 2
      m_PostInfinity: 2
      m_RotationOrder: 4
    path: "\xA1\xA1\xD7\xFD\xD7\xFB"
  - curve:
      serializedVersion: 2
      m_Curve:
      - serializedVersion: 2
        time: 0
        value: {x: -0.7071068, y: 0, z: -0, w: 0.7071068}
        inSlope: {x: 0, y: 0, z: 0, w: 0}
        outSlope: {x: 0, y: 0, z: 0, w: 0}
        tangentMode: 0
      - serializedVersion: 2
        time: 2.766667
        value: {x: -0.7071068, y: 0, z: -0, w: 0.7071068}
        inSlope: {x: 0, y: 0, z: 0, w: 0}
        outSlope: {x: 0, y: 0, z: 0, w: 0}
        tangentMode: 0
      m_PreInfinity: 2
      m_PostInfinity: 2
      m_RotationOrder: 4
    path: "\xA1\xA1\xD7\xFD\xD7\xFB 1"
  - curve:
      serializedVersion: 2
      m_Curve:
      - serializedVersion: 2
        time: 0
        value: {x: -0.0017197987, y: 0.7059498, z: -0.7082376, w: -0.005609085}
        inSlope: {x: 0, y: 0, z: 0, w: 0}
        outSlope: {x: 0, y: 0, z: 0, w: 0}
        tangentMode: 0
      - serializedVersion: 2
        time: 0.40000004
        value: {x: -0.0042194007, y: 0.7059265, z: -0.70822716, w: -0.008022769}
        inSlope: {x: -0.07411436, y: -0.00087171776, z: 0.0005051493, w: -0.0715691}
        outSlope: {x: -0.07411436, y: -0.00087171776, z: 0.0005051493, w: -0.0715691}
        tangentMode: 0
      - serializedVersion: 2
        time: 1.2333333
        value: {x: -0.33695772, y: 0.6242412, z: -0.6229469, w: -0.32972655}
        inSlope: {x: -0.57085, y: -0.29288623, z: 0.30895087, w: -0.55419356}
        outSlope: {x: -0.57085, y: -0.29288623, z: 0.30895087, w: -0.55419356}
        tangentMode: 0
      - serializedVersion: 2
        time: 1.7333335
        value: {x: -0.5878641, y: 0.40823343, z: -0.3949923, w: -0.57597095}
        inSlope: {x: -0.3795546, y: -0.5360364, z: 0.56472564, w: -0.3800365}
        outSlope: {x: -0.3795546, y: -0.5360364, z: 0.56472564, w: -0.3800365}
        tangentMode: 0
      - serializedVersion: 2
        time: 2.3000002
        value: {x: -0.70259356, y: 0.116536975, z: -0.08924451, w: -0.69628793}
        inSlope: {x: -0.054642014, y: -0.41119465, z: 0.4282914, w: -0.06904907}
        outSlope: {x: -0.054642014, y: -0.41119465, z: 0.4282914, w: -0.06904907}
        tangentMode: 0
      - serializedVersion: 2
        time: 2.766667
        value: {x: -0.7079757, y: 0.012024411, z: 0.019295136, w: -0.70587075}
        inSlope: {x: 0.00050783204, y: -0.018269716, z: 0.0189149, w: -0.00032007723}
        outSlope: {x: 0.00050783204, y: -0.018269716, z: 0.0189149, w: -0.00032007723}
        tangentMode: 0
      m_PreInfinity: 2
      m_PostInfinity: 2
      m_RotationOrder: 4
    path: Box005
  - curve:
      serializedVersion: 2
      m_Curve:
      - serializedVersion: 2
        time: 0
        value: {x: -0.7059121, y: -0.0073875473, z: -0.002901951, w: 0.70825493}
        inSlope: {x: 0, y: 0, z: 0, w: 0}
        outSlope: {x: 0, y: 0, z: 0, w: 0}
        tangentMode: 0
      - serializedVersion: 2
        time: 1.6333334
        value: {x: -0.7059471, y: 0.0023007516, z: -0.012624596, w: 0.7081483}
        inSlope: {x: 0.00003486875, y: 0.010780489, z: -0.010813308, w: -0.00019311924}
        outSlope: {x: 0.00003486875, y: 0.010780489, z: -0.010813308, w: -0.00019311924}
        tangentMode: 0
      - serializedVersion: 2
        time: 2.766667
        value: {x: -0.70587724, y: 0.010189209, z: -0.020533845, w: 0.70796317}
        inSlope: {x: 0.000005364423, y: 0.00029437273, z: -0.00029504328, w: -0.000008940705}
        outSlope: {x: 0.000005364423, y: 0.00029437273, z: -0.00029504328, w: -0.000008940705}
        tangentMode: 0
      m_PreInfinity: 2
      m_PostInfinity: 2
      m_RotationOrder: 4
    path: Box003
  - curve:
      serializedVersion: 2
      m_Curve:
      - serializedVersion: 2
        time: 0
        value: {x: 0, y: 0, z: 1, w: -6.123234e-17}
        inSlope: {x: 0, y: 0, z: 0, w: 0}
        outSlope: {x: 0, y: 0, z: 0, w: 0}
        tangentMode: 0
      - serializedVersion: 2
        time: 2.766667
        value: {x: 0, y: 0, z: 1, w: -6.123234e-17}
        inSlope: {x: 0, y: 0, z: 0, w: 0}
        outSlope: {x: 0, y: 0, z: 0, w: 0}
        tangentMode: 0
      m_PreInfinity: 2
      m_PostInfinity: 2
      m_RotationOrder: 4
    path: Sphere001
  - curve:
      serializedVersion: 2
      m_Curve:
      - serializedVersion: 2
        time: 0
        value: {x: 0, y: 0, z: 1, w: -6.123234e-17}
        inSlope: {x: 0, y: 0, z: 0, w: 0}
        outSlope: {x: 0, y: 0, z: 0, w: 0}
        tangentMode: 0
      - serializedVersion: 2
        time: 2.766667
        value: {x: 0, y: 0, z: 1, w: -6.123234e-17}
        inSlope: {x: 0, y: 0, z: 0, w: 0}
        outSlope: {x: 0, y: 0, z: 0, w: 0}
        tangentMode: 0
      m_PreInfinity: 2
      m_PostInfinity: 2
      m_RotationOrder: 4
    path: Sphere002
  m_CompressedRotationCurves: []
  m_EulerCurves: []
  m_PositionCurves:
  - curve:
      serializedVersion: 2
      m_Curve:
      - serializedVersion: 2
        time: 0
        value: {x: -0, y: 0, z: 0}
        inSlope: {x: 0, y: 0, z: 0}
        outSlope: {x: 0, y: 0, z: 0}
        tangentMode: 0
      - serializedVersion: 2
        time: 2.7666667
        value: {x: -0, y: 0, z: 0}
        inSlope: {x: 0, y: 0, z: 0}
        outSlope: {x: 0, y: 0, z: 0}
        tangentMode: 0
      m_PreInfinity: 2
      m_PostInfinity: 2
      m_RotationOrder: 4
    path: "\xA1\xA1\xD7\xFD\xD7\xFB"
  - curve:
      serializedVersion: 2
      m_Curve:
      - serializedVersion: 2
        time: 0
        value: {x: -0, y: 0, z: 0}
        inSlope: {x: 0, y: 0, z: 0}
        outSlope: {x: 0, y: 0, z: 0}
        tangentMode: 0
      - serializedVersion: 2
        time: 2.7666667
        value: {x: -0, y: 0, z: 0}
        inSlope: {x: 0, y: 0, z: 0}
        outSlope: {x: 0, y: 0, z: 0}
        tangentMode: 0
      m_PreInfinity: 2
      m_PostInfinity: 2
      m_RotationOrder: 4
    path: "\xA1\xA1\xD7\xFD\xD7\xFB 1"
  - curve:
      serializedVersion: 2
      m_Curve:
      - serializedVersion: 2
        time: 0
        value: {x: 0.17891803, y: 0.2967389, z: -0.001777998}
        inSlope: {x: 3.3306689e-15, y: 6.185528e-15, z: -1.3010425e-17}
        outSlope: {x: 3.3306689e-15, y: 6.185528e-15, z: -1.3010425e-17}
        tangentMode: 0
      - serializedVersion: 2
        time: 0.70000005
        value: {x: 0.16821346, y: 0.29630196, z: -0.001777998}
        inSlope: {x: -0.055117734, y: -0.0022595113, z: -0.000000005268621}
        outSlope: {x: -0.055120736, y: -0.0022501145, z: -0.000000047258013}
        tangentMode: 0
      - serializedVersion: 2
        time: 2.3333335
        value: {x: 0.018926226, y: 0.29020864, z: -0.0017779996}
        inSlope: {x: -0.063041516, y: -0.002570059, z: -1.1151805e-17}
        outSlope: {x: -0.06303789, y: -0.0025749635, z: 0.000000008621395}
        tangentMode: 0
      - serializedVersion: 2
        time: 2.7666667
        value: {x: 0.0042793895, y: 0.2896108, z: -0.0017779998}
        inSlope: {x: -0.00000013695528, y: 0.0000033106533, z: -1.1151884e-17}
        outSlope: {x: -0.00000013695528, y: 0.0000033106533, z: -1.1151884e-17}
        tangentMode: 0
      m_PreInfinity: 2
      m_PostInfinity: 2
      m_RotationOrder: 4
    path: Box005
  - curve:
      serializedVersion: 2
      m_Curve:
      - serializedVersion: 2
        time: 0
        value: {x: 0.17981705, y: 0.2983055, z: 0.0035398996}
        inSlope: {x: -0, y: 3.3306689e-15, z: -0}
        outSlope: {x: -0, y: 3.3306689e-15, z: -0}
        tangentMode: 0
      - serializedVersion: 2
        time: 0.70000005
        value: {x: 0.16904907, y: 0.29779994, z: 0.0035398996}
        inSlope: {x: -0.055451803, y: -0.0026034876, z: -0}
        outSlope: {x: -0.05544818, y: -0.0025975248, z: -0}
        tangentMode: 0
      - serializedVersion: 2
        time: 2.3333335
        value: {x: 0.018877776, y: 0.29074946, z: 0.0035398977}
        inSlope: {x: -0.06341381, y: -0.0029800439, z: -0.0000000067055286}
        outSlope: {x: -0.06341157, y: -0.0029765698, z: 5.2041754e-17}
        tangentMode: 0
      - serializedVersion: 2
        time: 2.7666667
        value: {x: 0.0041441987, y: 0.29005772, z: 0.0035398977}
        inSlope: {x: -0.00000011204678, y: -0.0000002452159, z: 2.2303769e-17}
        outSlope: {x: -0.00000011204678, y: -0.0000002452159, z: 2.2303769e-17}
        tangentMode: 0
      m_PreInfinity: 2
      m_PostInfinity: 2
      m_RotationOrder: 4
    path: Box003
  m_ScaleCurves:
  - curve:
      serializedVersion: 2
      m_Curve:
      - serializedVersion: 2
        time: 0
        value: {x: 1, y: 1, z: 1}
        inSlope: {x: 0, y: 0, z: 0}
        outSlope: {x: 0, y: 0, z: 0}
        tangentMode: 0
      - serializedVersion: 2
        time: 2.766667
        value: {x: 1, y: 1, z: 1}
        inSlope: {x: 0, y: 0, z: 0}
        outSlope: {x: 0, y: 0, z: 0}
        tangentMode: 0
      m_PreInfinity: 2
      m_PostInfinity: 2
      m_RotationOrder: 4
    path: "\xA1\xA1\xD7\xFD\xD7\xFB"
  - curve:
      serializedVersion: 2
      m_Curve:
      - serializedVersion: 2
        time: 0
        value: {x: 1, y: 1, z: 1}
        inSlope: {x: 0, y: 0, z: 0}
        outSlope: {x: 0, y: 0, z: 0}
        tangentMode: 0
      - serializedVersion: 2
        time: 2.766667
        value: {x: 1, y: 1, z: 1}
        inSlope: {x: 0, y: 0, z: 0}
        outSlope: {x: 0, y: 0, z: 0}
        tangentMode: 0
      m_PreInfinity: 2
      m_PostInfinity: 2
      m_RotationOrder: 4
    path: "\xA1\xA1\xD7\xFD\xD7\xFB 1"
  - curve:
      serializedVersion: 2
      m_Curve:
      - serializedVersion: 2
        time: 0
        value: {x: -0.15379554, y: -0.14751796, z: -0.15586771}
        inSlope: {x: 0, y: 0, z: 0}
        outSlope: {x: 0, y: 0, z: 0}
        tangentMode: 0
      - serializedVersion: 2
        time: 1.6333334
        value: {x: -0.15033484, y: -0.14751798, z: -0.15126464}
        inSlope: {x: 0.0038500912, y: 0.00000022351763, z: 0.005121012}
        outSlope: {x: 0.0038500912, y: 0.00000022351763, z: 0.005121012}
        tangentMode: 0
      - serializedVersion: 2
        time: 2.766667
        value: {x: -0.147518, y: -0.14751798, z: -0.14751795}
        inSlope: {x: 0.00010505329, y: 0, z: 0.00013992203}
        outSlope: {x: 0.00010505329, y: 0, z: 0.00013992203}
        tangentMode: 0
      m_PreInfinity: 2
      m_PostInfinity: 2
      m_RotationOrder: 4
    path: Box005
  - curve:
      serializedVersion: 2
      m_Curve:
      - serializedVersion: 2
        time: 0
        value: {x: 0.15608153, y: 0.15608135, z: 0.15608138}
        inSlope: {x: 0, y: 0, z: 0}
        outSlope: {x: 0, y: 0, z: 0}
        tangentMode: 0
      - serializedVersion: 2
        time: 2.766667
        value: {x: 0.15608153, y: 0.15608135, z: 0.15608138}
        inSlope: {x: 0, y: 0, z: 0}
        outSlope: {x: 0, y: 0, z: 0}
        tangentMode: 0
      m_PreInfinity: 2
      m_PostInfinity: 2
      m_RotationOrder: 4
    path: Box003
  - curve:
      serializedVersion: 2
      m_Curve:
      - serializedVersion: 2
        time: 0
        value: {x: 0, y: 0, z: 0}
        inSlope: {x: 0, y: 0, z: 0}
        outSlope: {x: 0, y: 0, z: 0}
        tangentMode: 0
      - serializedVersion: 2
        time: 2.766667
        value: {x: 0, y: 0, z: 0}
        inSlope: {x: 0, y: 0, z: 0}
        outSlope: {x: 0, y: 0, z: 0}
        tangentMode: 0
      m_PreInfinity: 2
      m_PostInfinity: 2
      m_RotationOrder: 4
    path: Sphere001
  - curve:
      serializedVersion: 2
      m_Curve:
      - serializedVersion: 2
        time: 0
        value: {x: 0, y: 0, z: 0}
        inSlope: {x: 0, y: 0, z: 0}
        outSlope: {x: 0, y: 0, z: 0}
        tangentMode: 0
      - serializedVersion: 2
        time: 2.766667
        value: {x: 0, y: 0, z: 0}
        inSlope: {x: 0, y: 0, z: 0}
        outSlope: {x: 0, y: 0, z: 0}
        tangentMode: 0
      m_PreInfinity: 2
      m_PostInfinity: 2
      m_RotationOrder: 4
    path: Sphere002
  m_FloatCurves: []
  m_PPtrCurves: []
  m_SampleRate: 30
  m_WrapMode: 0
  m_Bounds:
    m_Center: {x: 0, y: 0, z: 0}
    m_Extent: {x: 0, y: 0, z: 0}
  m_ClipBindingConstant:
    genericBindings:
    - serializedVersion: 2
      path: 3945100651
      attribute: 1
      script: {fileID: 0}
      typeID: 4
      customType: 0
      isPPtrCurve: 0
    - serializedVersion: 2
      path: 38195294
      attribute: 1
      script: {fileID: 0}
      typeID: 4
      customType: 0
      isPPtrCurve: 0
    - serializedVersion: 2
      path: 3945100651
      attribute: 2
      script: {fileID: 0}
      typeID: 4
      customType: 0
      isPPtrCurve: 0
    - serializedVersion: 2
      path: 38195294
      attribute: 2
      script: {fileID: 0}
      typeID: 4
      customType: 0
      isPPtrCurve: 0
    - serializedVersion: 2
      path: 3945100651
      attribute: 3
      script: {fileID: 0}
      typeID: 4
      customType: 0
      isPPtrCurve: 0
    - serializedVersion: 2
      path: 4185982102
      attribute: 1
      script: {fileID: 0}
      typeID: 4
      customType: 0
      isPPtrCurve: 0
    - serializedVersion: 2
      path: 2784306787
      attribute: 1
      script: {fileID: 0}
      typeID: 4
      customType: 0
      isPPtrCurve: 0
    - serializedVersion: 2
      path: 4185982102
      attribute: 2
      script: {fileID: 0}
      typeID: 4
      customType: 0
      isPPtrCurve: 0
    - serializedVersion: 2
      path: 2784306787
      attribute: 2
      script: {fileID: 0}
      typeID: 4
      customType: 0
      isPPtrCurve: 0
    - serializedVersion: 2
      path: 3305046817
      attribute: 2
      script: {fileID: 0}
      typeID: 4
      customType: 0
      isPPtrCurve: 0
    - serializedVersion: 2
      path: 1576424091
      attribute: 2
      script: {fileID: 0}
      typeID: 4
      customType: 0
      isPPtrCurve: 0
    - serializedVersion: 2
      path: 4185982102
      attribute: 3
      script: {fileID: 0}
      typeID: 4
      customType: 0
      isPPtrCurve: 0
    - serializedVersion: 2
      path: 2784306787
      attribute: 3
      script: {fileID: 0}
      typeID: 4
      customType: 0
      isPPtrCurve: 0
    - serializedVersion: 2
      path: 38195294
      attribute: 3
      script: {fileID: 0}
      typeID: 4
      customType: 0
      isPPtrCurve: 0
    - serializedVersion: 2
      path: 3305046817
      attribute: 3
      script: {fileID: 0}
      typeID: 4
      customType: 0
      isPPtrCurve: 0
    - serializedVersion: 2
      path: 1576424091
      attribute: 3
      script: {fileID: 0}
      typeID: 4
      customType: 0
      isPPtrCurve: 0
    pptrCurveMapping: []
  m_AnimationClipSettings:
    serializedVersion: 2
    m_AdditiveReferencePoseClip: {fileID: 0}
    m_AdditiveReferencePoseTime: 0
    m_StartTime: 0
    m_StopTime: 2.766667
    m_OrientationOffsetY: 0
    m_Level: 0
    m_CycleOffset: 0
    m_HasAdditiveReferencePose: 0
    m_LoopTime: 0
    m_LoopBlend: 0
    m_LoopBlendOrientation: 0
    m_LoopBlendPositionY: 0
    m_LoopBlendPositionXZ: 0
    m_KeepOriginalOrientation: 0
    m_KeepOriginalPositionY: 1
    m_KeepOriginalPositionXZ: 0
    m_HeightFromFeet: 0
    m_Mirror: 0
  m_EditorCurves: []
  m_EulerEditorCurves: []
  m_HasGenericRootTransform: 0
  m_HasMotionFloatCurves: 0
  m_GenerateMotionCurves: 0
  m_Events: []
