%YAML 1.1
%TAG !u! tag:unity3d.com,2011:
--- !u!74 &7400000
AnimationClip:
  m_ObjectHideFlags: 0
  m_PrefabParentObject: {fileID: 0}
  m_PrefabInternal: {fileID: 0}
  m_Name: Take 002
  serializedVersion: 6
  m_Legacy: 0
  m_Compressed: 0
  m_UseHighQualityCurve: 1
  m_RotationCurves:
  - curve:
      serializedVersion: 2
      m_Curve:
      - serializedVersion: 2
        time: 0
        value: {x: -0.7071068, y: 0, z: -0, w: 0.7071068}
        inSlope: {x: 0, y: 0, z: 0, w: 0}
        outSlope: {x: 0, y: 0, z: 0, w: 0}
        tangentMode: 0
      - serializedVersion: 2
        time: 6.0000005
        value: {x: -0.7071068, y: 0, z: -0, w: 0.7071068}
        inSlope: {x: 0, y: 0, z: 0, w: 0}
        outSlope: {x: 0, y: 0, z: 0, w: 0}
        tangentMode: 0
      m_PreInfinity: 2
      m_PostInfinity: 2
      m_RotationOrder: 4
    path: "\xA1\xA1\xD7\xFD\xD7\xFB"
  - curve:
      serializedVersion: 2
      m_Curve:
      - serializedVersion: 2
        time: 0
        value: {x: -0.7071068, y: 0, z: -0, w: 0.7071068}
        inSlope: {x: 0, y: 0, z: 0, w: 0}
        outSlope: {x: 0, y: 0, z: 0, w: 0}
        tangentMode: 0
      - serializedVersion: 2
        time: 0.033333335
        value: {x: -0.7071068, y: 0, z: -0, w: 0.7071068}
        inSlope: {x: 0, y: 0, z: 0, w: 0}
        outSlope: {x: 0, y: 0, z: 0, w: 0}
        tangentMode: 0
      m_PreInfinity: 2
      m_PostInfinity: 2
      m_RotationOrder: 4
    path: "\xD7\xFE\xD7\xFC 1"
  - curve:
      serializedVersion: 2
      m_Curve:
      - serializedVersion: 2
        time: 0
        value: {x: -0.7071068, y: 0, z: -0, w: 0.7071068}
        inSlope: {x: 0, y: 0, z: 0, w: 0}
        outSlope: {x: 0, y: 0, z: 0, w: 0}
        tangentMode: 0
      - serializedVersion: 2
        time: 0.033333335
        value: {x: -0.7071068, y: 0, z: -0, w: 0.7071068}
        inSlope: {x: 0, y: 0, z: 0, w: 0}
        outSlope: {x: 0, y: 0, z: 0, w: 0}
        tangentMode: 0
      m_PreInfinity: 2
      m_PostInfinity: 2
      m_RotationOrder: 4
    path: "\xA1\xA1\xD7\xFD\xD7\xFB 1"
  - curve:
      serializedVersion: 2
      m_Curve:
      - serializedVersion: 2
        time: 0
        value: {x: -0.7071068, y: 0, z: -0, w: 0.7071068}
        inSlope: {x: 0, y: 0, z: 0, w: 0}
        outSlope: {x: 0, y: 0, z: 0, w: 0}
        tangentMode: 0
      - serializedVersion: 2
        time: 0.033333335
        value: {x: -0.7071068, y: 0, z: -0, w: 0.7071068}
        inSlope: {x: 0, y: 0, z: 0, w: 0}
        outSlope: {x: 0, y: 0, z: 0, w: 0}
        tangentMode: 0
      m_PreInfinity: 2
      m_PostInfinity: 2
      m_RotationOrder: 4
    path: "\xD7\xFE\xD7\xFC 2"
  - curve:
      serializedVersion: 2
      m_Curve:
      - serializedVersion: 2
        time: 0
        value: {x: -0.7071068, y: 0, z: -0, w: 0.7071068}
        inSlope: {x: 0, y: 0, z: 0, w: 0}
        outSlope: {x: 0, y: 0, z: 0, w: 0}
        tangentMode: 0
      - serializedVersion: 2
        time: 0.033333335
        value: {x: -0.7071068, y: 0, z: -0, w: 0.7071068}
        inSlope: {x: 0, y: 0, z: 0, w: 0}
        outSlope: {x: 0, y: 0, z: 0, w: 0}
        tangentMode: 0
      m_PreInfinity: 2
      m_PostInfinity: 2
      m_RotationOrder: 4
    path: "\xA1\xA1\xD7\xFD\xD7\xFB 2"
  - curve:
      serializedVersion: 2
      m_Curve:
      - serializedVersion: 2
        time: 0.43333337
        value: {x: -0.7071068, y: 0, z: -0, w: 0.7071068}
        inSlope: {x: 0, y: 0, z: 0, w: 0}
        outSlope: {x: 0, y: 0, z: 0, w: 0}
        tangentMode: 0
      - serializedVersion: 2
        time: 6.0000005
        value: {x: -0.7071068, y: 0, z: -0, w: 0.7071068}
        inSlope: {x: 0, y: 0, z: 0, w: 0}
        outSlope: {x: 0, y: 0, z: 0, w: 0}
        tangentMode: 0
      m_PreInfinity: 2
      m_PostInfinity: 2
      m_RotationOrder: 4
    path: root
  - curve:
      serializedVersion: 2
      m_Curve:
      - serializedVersion: 2
        time: 1.3333334
        value: {x: 0.7071068, y: 0, z: 0, w: 0.7071067}
        inSlope: {x: 0, y: 0, z: 0, w: 0}
        outSlope: {x: 0, y: 0, z: 0, w: 0}
        tangentMode: 0
      - serializedVersion: 2
        time: 1.6666667
        value: {x: 0.7071068, y: 0, z: 0, w: 0.7071067}
        inSlope: {x: 0, y: 0, z: 0, w: 0}
        outSlope: {x: 0, y: 0, z: 0, w: 0}
        tangentMode: 0
      m_PreInfinity: 2
      m_PostInfinity: 2
      m_RotationOrder: 4
    path: root/Line001
  - curve:
      serializedVersion: 2
      m_Curve:
      - serializedVersion: 2
        time: 1.3333334
        value: {x: -4.3297806e-17, y: 0.7071068, z: 0.7071068, w: -4.3297806e-17}
        inSlope: {x: 0, y: 0, z: 0, w: 0}
        outSlope: {x: 0, y: 0, z: 0, w: 0}
        tangentMode: 0
      - serializedVersion: 2
        time: 1.6666667
        value: {x: -4.3297806e-17, y: 0.7071068, z: 0.7071068, w: -4.3297806e-17}
        inSlope: {x: 0, y: 0, z: 0, w: 0}
        outSlope: {x: 0, y: 0, z: 0, w: 0}
        tangentMode: 0
      m_PreInfinity: 2
      m_PostInfinity: 2
      m_RotationOrder: 4
    path: root/Text001
  - curve:
      serializedVersion: 2
      m_Curve:
      - serializedVersion: 2
        time: 1.3333334
        value: {x: 0.7071068, y: 0, z: 0, w: 0.7071067}
        inSlope: {x: 0, y: 0, z: 0, w: 0}
        outSlope: {x: 0, y: 0, z: 0, w: 0}
        tangentMode: 0
      - serializedVersion: 2
        time: 1.6666667
        value: {x: 0.7071068, y: 0, z: 0, w: 0.7071067}
        inSlope: {x: 0, y: 0, z: 0, w: 0}
        outSlope: {x: 0, y: 0, z: 0, w: 0}
        tangentMode: 0
      m_PreInfinity: 2
      m_PostInfinity: 2
      m_RotationOrder: 4
    path: root/Rectangle001
  - curve:
      serializedVersion: 2
      m_Curve:
      - serializedVersion: 2
        time: 0
        value: {x: -0.7071068, y: 0, z: -0, w: 0.7071068}
        inSlope: {x: 0, y: 0, z: 0, w: 0}
        outSlope: {x: 0, y: 0, z: 0, w: 0}
        tangentMode: 0
      - serializedVersion: 2
        time: 6.0000005
        value: {x: -0.7071068, y: 0, z: -0, w: 0.7071068}
        inSlope: {x: 0, y: 0, z: 0, w: 0}
        outSlope: {x: 0, y: 0, z: 0, w: 0}
        tangentMode: 0
      m_PreInfinity: 2
      m_PostInfinity: 2
      m_RotationOrder: 4
    path: root002
  - curve:
      serializedVersion: 2
      m_Curve:
      - serializedVersion: 2
        time: 0
        value: {x: -0.7071068, y: 0, z: -0, w: 0.7071068}
        inSlope: {x: 0, y: 0, z: 0, w: 0}
        outSlope: {x: 0, y: 0, z: 0, w: 0}
        tangentMode: 0
      - serializedVersion: 2
        time: 1.9333334
        value: {x: -0.7071068, y: 0, z: -0, w: 0.7071068}
        inSlope: {x: 0, y: 0, z: 0, w: 0}
        outSlope: {x: 0, y: 0, z: 0, w: 0}
        tangentMode: 0
      m_PreInfinity: 2
      m_PostInfinity: 2
      m_RotationOrder: 4
    path: root003
  - curve:
      serializedVersion: 2
      m_Curve:
      - serializedVersion: 2
        time: 0
        value: {x: 0.00000006657903, y: -0, z: -0, w: 1}
        inSlope: {x: 0, y: 0, z: 0, w: 0}
        outSlope: {x: 0, y: 0, z: 0, w: 0}
        tangentMode: 0
      - serializedVersion: 2
        time: 6.0000005
        value: {x: 0.00000006657903, y: -0, z: -0, w: 1}
        inSlope: {x: 0, y: 0, z: 0, w: 0}
        outSlope: {x: 0, y: 0, z: 0, w: 0}
        tangentMode: 0
      m_PreInfinity: 2
      m_PostInfinity: 2
      m_RotationOrder: 4
    path: SOIL
  - curve:
      serializedVersion: 2
      m_Curve:
      - serializedVersion: 2
        time: 0
        value: {x: -0.8259431, y: 0.47685853, z: 0.26041883, w: -0.15035287}
        inSlope: {x: 0, y: 0, z: 0, w: 0}
        outSlope: {x: 0, y: 0, z: 0, w: 0}
        tangentMode: 0
      - serializedVersion: 2
        time: 1.6333334
        value: {x: -0.8259431, y: 0.47685853, z: 0.26041883, w: -0.15035287}
        inSlope: {x: 0, y: 0, z: 0, w: 0}
        outSlope: {x: 0, y: 0, z: 0, w: 0}
        tangentMode: 0
      - serializedVersion: 2
        time: 3.266667
        value: {x: -0.8259431, y: 0.47685853, z: 0.26041883, w: -0.15035287}
        inSlope: {x: 0, y: 0, z: 0, w: 0}
        outSlope: {x: 0, y: 0, z: 0, w: 0}
        tangentMode: 0
      - serializedVersion: 2
        time: 4
        value: {x: -0.8259431, y: 0.47685853, z: 0.26041883, w: -0.15035287}
        inSlope: {x: 0, y: 0, z: -0.00000089405773, w: -0.00000044702887}
        outSlope: {x: 0, y: 0, z: -0.00000089405773, w: -0.00000044702887}
        tangentMode: 0
      - serializedVersion: 2
        time: 4.1333337
        value: {x: -0.80744535, y: 0.51229566, z: 0.24027875, w: -0.166887}
        inSlope: {x: 0.3805638, y: 0.667965, z: -0.34393954, w: -0.26549715}
        outSlope: {x: 0.3805638, y: 0.667965, z: -0.34393954, w: -0.26549715}
        tangentMode: 0
      - serializedVersion: 2
        time: 4.3333335
        value: {x: -0.64822894, y: 0.7158013, z: 0.18761475, w: -0.17952284}
        inSlope: {x: 1.1105278, y: 1.0854928, z: 0.044596016, w: 0.36853027}
        outSlope: {x: 1.1105278, y: 1.0854928, z: 0.044596016, w: 0.36853027}
        tangentMode: 0
      - serializedVersion: 2
        time: 4.5
        value: {x: -0.4738745, y: 0.84359753, z: 0.24476556, w: -0.062257484}
        inSlope: {x: 0.81446075, y: 0.37677258, z: 0.5060036, w: 0.84256536}
        outSlope: {x: 0.81446075, y: 0.37677258, z: 0.5060036, w: 0.84256536}
        tangentMode: 0
      - serializedVersion: 2
        time: 4.666667
        value: {x: -0.4029312, y: 0.8640891, z: 0.30050832, w: 0.026290888}
        inSlope: {x: 0.045768365, y: 0.0043666405, z: 0.043851923, w: 0.06757829}
        outSlope: {x: 0.045768365, y: 0.0043666405, z: 0.043851923, w: 0.06757829}
        tangentMode: 0
      - serializedVersion: 2
        time: 4.9666667
        value: {x: -0.4029312, y: 0.8640891, z: 0.30050832, w: 0.026290888}
        inSlope: {x: 0, y: 0, z: 0, w: 0}
        outSlope: {x: 0, y: 0, z: 0, w: 0}
        tangentMode: 0
      - serializedVersion: 2
        time: 6.0000005
        value: {x: -0.4029312, y: 0.8640891, z: 0.30050832, w: 0.026290888}
        inSlope: {x: 0, y: 0, z: 0, w: 0}
        outSlope: {x: 0, y: 0, z: 0, w: 0}
        tangentMode: 0
      m_PreInfinity: 2
      m_PostInfinity: 2
      m_RotationOrder: 4
    path: sead coat
  - curve:
      serializedVersion: 2
      m_Curve:
      - serializedVersion: 2
        time: 0
        value: {x: -0.7071068, y: 0, z: -0, w: 0.7071068}
        inSlope: {x: 0, y: 0, z: 0, w: 0}
        outSlope: {x: 0, y: 0, z: 0, w: 0}
        tangentMode: 0
      - serializedVersion: 2
        time: 6.0000005
        value: {x: -0.7071068, y: 0, z: -0, w: 0.7071068}
        inSlope: {x: 0, y: 0, z: 0, w: 0}
        outSlope: {x: 0, y: 0, z: 0, w: 0}
        tangentMode: 0
      m_PreInfinity: 2
      m_PostInfinity: 2
      m_RotationOrder: 4
    path: new_plant_1:pCube1
  - curve:
      serializedVersion: 2
      m_Curve:
      - serializedVersion: 2
        time: 0
        value: {x: -0.7071068, y: 0, z: -0, w: 0.7071068}
        inSlope: {x: 0, y: 0, z: 0, w: 0}
        outSlope: {x: 0, y: 0, z: 0, w: 0}
        tangentMode: 0
      - serializedVersion: 2
        time: 6.0000005
        value: {x: -0.7071068, y: 0, z: -0, w: 0.7071068}
        inSlope: {x: 0, y: 0, z: 0, w: 0}
        outSlope: {x: 0, y: 0, z: 0, w: 0}
        tangentMode: 0
      m_PreInfinity: 2
      m_PostInfinity: 2
      m_RotationOrder: 4
    path: LEAF001
  - curve:
      serializedVersion: 2
      m_Curve:
      - serializedVersion: 2
        time: 0
        value: {x: -0.7071068, y: 0, z: -0, w: 0.7071068}
        inSlope: {x: 0, y: 0, z: 0, w: 0}
        outSlope: {x: 0, y: 0, z: 0, w: 0}
        tangentMode: 0
      - serializedVersion: 2
        time: 6.0000005
        value: {x: -0.7071068, y: 0, z: -0, w: 0.7071068}
        inSlope: {x: 0, y: 0, z: 0, w: 0}
        outSlope: {x: 0, y: 0, z: 0, w: 0}
        tangentMode: 0
      m_PreInfinity: 2
      m_PostInfinity: 2
      m_RotationOrder: 4
    path: leaf001
  - curve:
      serializedVersion: 2
      m_Curve:
      - serializedVersion: 2
        time: 0
        value: {x: -0.7071068, y: 0, z: -0, w: 0.7071068}
        inSlope: {x: 0, y: 0, z: 0, w: 0}
        outSlope: {x: 0, y: 0, z: 0, w: 0}
        tangentMode: 0
      - serializedVersion: 2
        time: 6.0000005
        value: {x: -0.7071068, y: 0, z: -0, w: 0.7071068}
        inSlope: {x: 0, y: 0, z: 0, w: 0}
        outSlope: {x: 0, y: 0, z: 0, w: 0}
        tangentMode: 0
      m_PreInfinity: 2
      m_PostInfinity: 2
      m_RotationOrder: 4
    path: leaf002
  - curve:
      serializedVersion: 2
      m_Curve:
      - serializedVersion: 2
        time: 0
        value: {x: -0.7071068, y: 0, z: -0, w: 0.7071068}
        inSlope: {x: 0, y: 0, z: 0, w: 0}
        outSlope: {x: 0, y: 0, z: 0, w: 0}
        tangentMode: 0
      - serializedVersion: 2
        time: 6.0000005
        value: {x: -0.7071068, y: 0, z: -0, w: 0.7071068}
        inSlope: {x: 0, y: 0, z: 0, w: 0}
        outSlope: {x: 0, y: 0, z: 0, w: 0}
        tangentMode: 0
      m_PreInfinity: 2
      m_PostInfinity: 2
      m_RotationOrder: 4
    path: LEAF002
  - curve:
      serializedVersion: 2
      m_Curve:
      - serializedVersion: 2
        time: 0
        value: {x: -0.7071068, y: 0, z: -0, w: 0.7071068}
        inSlope: {x: 0, y: 0, z: 0, w: 0}
        outSlope: {x: 0, y: 0, z: 0, w: 0}
        tangentMode: 0
      - serializedVersion: 2
        time: 6.0000005
        value: {x: -0.7071068, y: 0, z: -0, w: 0.7071068}
        inSlope: {x: 0, y: 0, z: 0, w: 0}
        outSlope: {x: 0, y: 0, z: 0, w: 0}
        tangentMode: 0
      m_PreInfinity: 2
      m_PostInfinity: 2
      m_RotationOrder: 4
    path: leaf
  - curve:
      serializedVersion: 2
      m_Curve:
      - serializedVersion: 2
        time: 0
        value: {x: 1, y: -0.00000011920929, z: -1.4598928e-23, w: 6.123234e-17}
        inSlope: {x: 0, y: 0, z: 0, w: 0}
        outSlope: {x: 0, y: 0, z: 0, w: 0}
        tangentMode: 0
      - serializedVersion: 2
        time: 0.6666667
        value: {x: 1, y: -0.0000001199382, z: -1.4688194e-23, w: 6.123234e-17}
        inSlope: {x: -0.000044703447, y: -0.036712978, z: -4.4960294e-18, w: -8.337973e-21}
        outSlope: {x: -0.000044703447, y: -0.036712978, z: -4.4960294e-18, w: -8.337973e-21}
        tangentMode: 0
      - serializedVersion: 2
        time: 1.0666667
        value: {x: 0.9698694, y: -0.2436256, z: -2.895011e-17, w: 5.5862524e-17}
        inSlope: {x: -0.22877567, y: -0.9103612, z: -1.0151183e-16, w: -3.9491098e-17}
        outSlope: {x: -0.22877567, y: -0.9103612, z: -1.0151183e-16, w: -3.9491098e-17}
        tangentMode: 0
      - serializedVersion: 2
        time: 1.4000001
        value: {x: 0.87624586, y: -0.48186424, z: -5.2160335e-17, w: 4.1196357e-17}
        inSlope: {x: -0.19024569, y: -0.34752253, z: -2.7838856e-17, w: -2.688505e-17}
        outSlope: {x: -0.19024569, y: -0.34752253, z: -2.7838856e-17, w: -2.688505e-17}
        tangentMode: 0
      - serializedVersion: 2
        time: 1.6666667
        value: {x: 0.8660253, y: -0.5000001, z: -5.3578308e-17, w: 3.9771562e-17}
        inSlope: {x: 0, y: 0, z: 0, w: 0}
        outSlope: {x: 0, y: 0, z: 0, w: 0}
        tangentMode: 0
      - serializedVersion: 2
        time: 3.3000002
        value: {x: 0.8660253, y: -0.5000001, z: -5.3578308e-17, w: 3.9771562e-17}
        inSlope: {x: 0, y: 0, z: 0, w: 0}
        outSlope: {x: 0, y: 0, z: 0, w: 0}
        tangentMode: 0
      - serializedVersion: 2
        time: 4.9666667
        value: {x: 0.8660253, y: -0.5000001, z: -5.3578308e-17, w: 3.9771562e-17}
        inSlope: {x: 0, y: 0, z: 0, w: 0}
        outSlope: {x: 0, y: 0, z: 0, w: 0}
        tangentMode: 0
      - serializedVersion: 2
        time: 6.0000005
        value: {x: 0.8660253, y: -0.5000001, z: -5.3578308e-17, w: 3.9771562e-17}
        inSlope: {x: 0, y: 0, z: 0, w: 0}
        outSlope: {x: 0, y: 0, z: 0, w: 0}
        tangentMode: 0
      m_PreInfinity: 2
      m_PostInfinity: 2
      m_RotationOrder: 4
    path: Box001
  m_CompressedRotationCurves: []
  m_EulerCurves: []
  m_PositionCurves:
  - curve:
      serializedVersion: 2
      m_Curve:
      - serializedVersion: 2
        time: 0
        value: {x: -0, y: 0, z: 0}
        inSlope: {x: 0, y: 0, z: 0}
        outSlope: {x: 0, y: 0, z: 0}
        tangentMode: 0
      - serializedVersion: 2
        time: 6
        value: {x: -0, y: 0, z: 0}
        inSlope: {x: 0, y: 0, z: 0}
        outSlope: {x: 0, y: 0, z: 0}
        tangentMode: 0
      m_PreInfinity: 2
      m_PostInfinity: 2
      m_RotationOrder: 4
    path: "\xA1\xA1\xD7\xFD\xD7\xFB"
  - curve:
      serializedVersion: 2
      m_Curve:
      - serializedVersion: 2
        time: 1.3333334
        value: {x: -0.41596228, y: 0.33661076, z: -0.18893701}
        inSlope: {x: -0, y: 6.767902e-15, z: -4.5119344e-15}
        outSlope: {x: -0, y: 6.767902e-15, z: -4.5119344e-15}
        tangentMode: 0
      - serializedVersion: 2
        time: 2.3666668
        value: {x: -0.41431874, y: 0.31854677, z: -0.18893701}
        inSlope: {x: 0.0044825096, y: -0.046124298, z: -1.9336932e-15}
        outSlope: {x: 0.004491811, y: -0.046123523, z: -4.511951e-15}
        tangentMode: 0
      - serializedVersion: 2
        time: 4
        value: {x: -0.40150103, y: 0.23526242, z: -0.18893701}
        inSlope: {x: 0.010072999, y: -0.026071262, z: -1.933707e-15}
        outSlope: {x: 0.010073834, y: -0.02606752, z: -4.511886e-15}
        tangentMode: 0
      - serializedVersion: 2
        time: 5.033334
        value: {x: -0.38532284, y: 0.2307103, z: -0.18893701}
        inSlope: {x: 0.022189695, y: -6.1233617e-15, z: -1.9336932e-15}
        outSlope: {x: 0.022189029, y: 2.9005396e-15, z: -4.511951e-15}
        tangentMode: 0
      - serializedVersion: 2
        time: 6
        value: {x: -0.37100202, y: 0.2307103, z: -0.18893701}
        inSlope: {x: -0.0000020487234, y: -6.1234494e-15, z: -1.933721e-15}
        outSlope: {x: -0.0000020487234, y: -6.1234494e-15, z: -1.933721e-15}
        tangentMode: 0
      m_PreInfinity: 2
      m_PostInfinity: 2
      m_RotationOrder: 4
    path: root
  - curve:
      serializedVersion: 2
      m_Curve:
      - serializedVersion: 2
        time: 1.3333334
        value: {x: 0.13894717, y: -0.005537995, z: -0.019640042}
        inSlope: {x: 0, y: 0, z: 0}
        outSlope: {x: 0, y: 0, z: 0}
        tangentMode: 0
      - serializedVersion: 2
        time: 1.6666666
        value: {x: 0.13894717, y: -0.005537995, z: -0.019640042}
        inSlope: {x: 0, y: 0, z: 0}
        outSlope: {x: 0, y: 0, z: 0}
        tangentMode: 0
      m_PreInfinity: 2
      m_PostInfinity: 2
      m_RotationOrder: 4
    path: root/Line001
  - curve:
      serializedVersion: 2
      m_Curve:
      - serializedVersion: 2
        time: 1.3333334
        value: {x: -0.19579215, y: 0.008496652, z: 0.019757863}
        inSlope: {x: 0, y: 0, z: 0}
        outSlope: {x: 0, y: 0, z: 0}
        tangentMode: 0
      - serializedVersion: 2
        time: 1.6666666
        value: {x: -0.19579215, y: 0.008496652, z: 0.019757863}
        inSlope: {x: 0, y: 0, z: 0}
        outSlope: {x: 0, y: 0, z: 0}
        tangentMode: 0
      m_PreInfinity: 2
      m_PostInfinity: 2
      m_RotationOrder: 4
    path: root/Text001
  - curve:
      serializedVersion: 2
      m_Curve:
      - serializedVersion: 2
        time: 1.3333334
        value: {x: -0.19783211, y: 0.00590619, z: 0.027680015}
        inSlope: {x: 0, y: 0, z: 0}
        outSlope: {x: 0, y: 0, z: 0}
        tangentMode: 0
      - serializedVersion: 2
        time: 1.6666666
        value: {x: -0.19783211, y: 0.00590619, z: 0.027680015}
        inSlope: {x: 0, y: 0, z: 0}
        outSlope: {x: 0, y: 0, z: 0}
        tangentMode: 0
      m_PreInfinity: 2
      m_PostInfinity: 2
      m_RotationOrder: 4
    path: root/Rectangle001
  - curve:
      serializedVersion: 2
      m_Curve:
      - serializedVersion: 2
        time: 2
        value: {x: 0.13894717, y: -0.005537995, z: -0.1445807}
        inSlope: {x: 1.1279797e-15, y: -0, z: -0.000000982983}
        outSlope: {x: 1.1279797e-15, y: -0, z: -0.000000982983}
        tangentMode: 0
      - serializedVersion: 2
        time: 2.6666667
        value: {x: 0.13894717, y: -0.005537995, z: -0.099139154}
        inSlope: {x: 4.834233e-16, y: -0, z: 0.16990425}
        outSlope: {x: 1.1279877e-15, y: -0, z: 0.16990596}
        tangentMode: 0
      - serializedVersion: 2
        time: 3.1
        value: {x: 0.13894717, y: -0.005537995, z: 0.042315383}
        inSlope: {x: 4.8342674e-16, y: -0, z: 0.17228347}
        outSlope: {x: 1.1279797e-15, y: -0, z: 0.17226782}
        tangentMode: 0
      - serializedVersion: 2
        time: 3.8000002
        value: {x: 0.13894717, y: -0.005537995, z: 0.09160136}
        inSlope: {x: 4.8341986e-16, y: -0, z: 0.037224263}
        outSlope: {x: 1.1279877e-15, y: -0, z: 0.03722571}
        tangentMode: 0
      - serializedVersion: 2
        time: 5.4333334
        value: {x: 0.13894717, y: -0.005537995, z: 0.14424305}
        inSlope: {x: 4.834233e-16, y: -0, z: 0.018593993}
        outSlope: {x: 1.1279715e-15, y: -0, z: 0.01859453}
        tangentMode: 0
      - serializedVersion: 2
        time: 6
        value: {x: 0.13894717, y: -0.005537995, z: 0.14980714}
        inSlope: {x: 4.8343024e-16, y: -0, z: 0.0000011211353}
        outSlope: {x: 4.8343024e-16, y: -0, z: 0.0000011211353}
        tangentMode: 0
      m_PreInfinity: 2
      m_PostInfinity: 2
      m_RotationOrder: 4
    path: root001/Line002
  - curve:
      serializedVersion: 2
      m_Curve:
      - serializedVersion: 2
        time: 0
        value: {x: -0.44871563, y: 0.3015341, z: -0.18893701}
        inSlope: {x: -0.000009135671, y: -0.00000036017707, z: -0.0000031559632}
        outSlope: {x: -0.000009135671, y: -0.00000036017707, z: -0.0000031559632}
        tangentMode: 0
      - serializedVersion: 2
        time: 1.6333334
        value: {x: -0.44026256, y: 0.45998618, z: -0.18356575}
        inSlope: {x: 0.009204761, y: 0.17247914, z: 0.0058489833}
        outSlope: {x: 0.009196234, y: 0.17247377, z: 0.0058473777}
        tangentMode: 0
      - serializedVersion: 2
        time: 3.266667
        value: {x: -0.4224053, y: 0.79471904, z: -0.1722189}
        inSlope: {x: 0.0115103815, y: 0.21589197, z: 0.007314759}
        outSlope: {x: 0.011525663, y: 0.21590748, z: 0.0073188003}
        tangentMode: 0
      - serializedVersion: 2
        time: 4.9333334
        value: {x: -0.40615332, y: 1.09936, z: -0.16189209}
        inSlope: {x: 0.006792337, y: 0.12727086, z: 0.0043152715}
        outSlope: {x: 0.006787077, y: 0.1272775, z: 0.00431368}
        tangentMode: 0
      - serializedVersion: 2
        time: 6
        value: {x: -0.4022704, y: 1.1721451, z: -0.15942481}
        inSlope: {x: 0.0000017164067, y: -0.000013620927, z: -0.0000010243261}
        outSlope: {x: 0.0000017164067, y: -0.000013620927, z: -0.0000010243261}
        tangentMode: 0
      m_PreInfinity: 2
      m_PostInfinity: 2
      m_RotationOrder: 4
    path: root002
  - curve:
      serializedVersion: 2
      m_Curve:
      - serializedVersion: 2
        time: 0
        value: {x: 0.2949346, y: 0.6955112, z: -0.18893701}
        inSlope: {x: 6.7679195e-15, y: -0.000031448486, z: -4.5119463e-15}
        outSlope: {x: 6.7679195e-15, y: -0.000031448486, z: -4.5119463e-15}
        tangentMode: 0
      - serializedVersion: 2
        time: 1.6333334
        value: {x: 0.2949346, y: 0.6027488, z: -0.18893701}
        inSlope: {x: 2.9005398e-15, y: -0.04036058, z: -1.9336932e-15}
        outSlope: {x: 6.7679262e-15, y: -0.040352996, z: -4.511951e-15}
        tangentMode: 0
      - serializedVersion: 2
        time: 1.9333333
        value: {x: 0.2949346, y: 0.596323, z: -0.18893701}
        inSlope: {x: 2.9005504e-15, y: -0.0000012177791, z: -1.9337002e-15}
        outSlope: {x: 2.9005504e-15, y: -0.0000012177791, z: -1.9337002e-15}
        tangentMode: 0
      m_PreInfinity: 2
      m_PostInfinity: 2
      m_RotationOrder: 4
    path: root003
  - curve:
      serializedVersion: 2
      m_Curve:
      - serializedVersion: 2
        time: 2.0666666
        value: {x: 0.13894717, y: -0.005537995, z: -0.1445807}
        inSlope: {x: -0.0000028513634, y: -0, z: -0.0000018827081}
        outSlope: {x: -0.0000028513634, y: -0, z: -0.0000018827081}
        tangentMode: 0
      - serializedVersion: 2
        time: 3.5
        value: {x: 0.13009006, y: -0.005537995, z: -0.10602769}
        inSlope: {x: -0.00000042905162, y: -0, z: 0.0000005396173}
        outSlope: {x: -0.00000042905162, y: -0, z: 0.0000005396173}
        tangentMode: 0
      m_PreInfinity: 2
      m_PostInfinity: 2
      m_RotationOrder: 4
    path: root003/Line004
  - curve:
      serializedVersion: 2
      m_Curve:
      - serializedVersion: 2
        time: 0
        value: {x: -0, y: 0.28624037, z: -0.18576236}
        inSlope: {x: 0, y: 0, z: 0}
        outSlope: {x: 0, y: 0, z: 0}
        tangentMode: 0
      - serializedVersion: 2
        time: 6
        value: {x: -0, y: 0.28624037, z: -0.18576236}
        inSlope: {x: 0, y: 0, z: 0}
        outSlope: {x: 0, y: 0, z: 0}
        tangentMode: 0
      m_PreInfinity: 2
      m_PostInfinity: 2
      m_RotationOrder: 4
    path: SOIL
  - curve:
      serializedVersion: 2
      m_Curve:
      - serializedVersion: 2
        time: 0
        value: {x: -0.1002777, y: 0.68163055, z: -0.1753665}
        inSlope: {x: -2.2559732e-15, y: 9.023893e-15, z: -2.2559732e-15}
        outSlope: {x: -2.2559732e-15, y: 9.023893e-15, z: -2.2559732e-15}
        tangentMode: 0
      - serializedVersion: 2
        time: 1.6333334
        value: {x: -0.1002777, y: 0.68163055, z: -0.1753665}
        inSlope: {x: -9.668466e-16, y: 3.8673864e-15, z: -9.668466e-16}
        outSlope: {x: -2.2559755e-15, y: 9.023902e-15, z: -2.2559755e-15}
        tangentMode: 0
      - serializedVersion: 2
        time: 3.266667
        value: {x: -0.1002777, y: 0.68163055, z: -0.1753665}
        inSlope: {x: -9.668466e-16, y: 3.8673864e-15, z: -9.668466e-16}
        outSlope: {x: -2.2559755e-15, y: 9.023902e-15, z: -2.2559755e-15}
        tangentMode: 0
      - serializedVersion: 2
        time: 4.0333333
        value: {x: -0.1002777, y: 0.68163055, z: -0.1753665}
        inSlope: {x: -9.668466e-16, y: 3.8673864e-15, z: -9.668466e-16}
        outSlope: {x: 0.000011169312, y: -0.0000036497904, z: -2.255943e-15}
        tangentMode: 0
      - serializedVersion: 2
        time: 4.133333
        value: {x: -0.07686223, y: 0.66331613, z: -0.1753665}
        inSlope: {x: 0.28421798, y: -0.4622376, z: -9.668605e-16}
        outSlope: {x: 0.28422472, y: -0.46224502, z: -2.255943e-15}
        tangentMode: 0
      - serializedVersion: 2
        time: 4.366667
        value: {x: -0.0055377046, y: 0.52754635, z: -0.1753665}
        inSlope: {x: 0.000000628273, y: -0.4788153, z: -9.668466e-16}
        outSlope: {x: -0.0000007864623, y: -0.47883806, z: -2.2559755e-15}
        tangentMode: 0
      - serializedVersion: 2
        time: 4.6666665
        value: {x: -0.05337722, y: 0.40795103, z: -0.1753665}
        inSlope: {x: 0.00000044893486, y: 0.000009366421, z: -9.668605e-16}
        outSlope: {x: -5.6398577e-16, y: 9.023772e-15, z: -2.255943e-15}
        tangentMode: 0
      - serializedVersion: 2
        time: 5.133333
        value: {x: -0.05337722, y: 0.40795103, z: -0.1753665}
        inSlope: {x: -2.4171512e-16, y: 3.867442e-15, z: -9.668605e-16}
        outSlope: {x: 0.0000010176974, y: -0.000011736648, z: -2.255943e-15}
        tangentMode: 0
      - serializedVersion: 2
        time: 5.633333
        value: {x: -0.060557753, y: 0.38348007, z: -0.1753665}
        inSlope: {x: -0.0000005671955, y: 0.00000094239226, z: -9.668605e-16}
        outSlope: {x: -1.1279715e-15, y: 4.511886e-15, z: -2.255943e-15}
        tangentMode: 0
      - serializedVersion: 2
        time: 6
        value: {x: -0.060557753, y: 0.38348007, z: -0.1753665}
        inSlope: {x: -4.8343024e-16, y: 1.933721e-15, z: -9.668605e-16}
        outSlope: {x: -4.8343024e-16, y: 1.933721e-15, z: -9.668605e-16}
        tangentMode: 0
      m_PreInfinity: 2
      m_PostInfinity: 2
      m_RotationOrder: 4
    path: sead coat
  - curve:
      serializedVersion: 2
      m_Curve:
      - serializedVersion: 2
        time: 0
        value: {x: -0.044373065, y: 0.457214, z: -0.18230197}
        inSlope: {x: -5.639933e-16, y: 7.734765e-15, z: -2.2559732e-15}
        outSlope: {x: -5.639933e-16, y: 7.734765e-15, z: -2.2559732e-15}
        tangentMode: 0
      - serializedVersion: 2
        time: 1.6333334
        value: {x: -0.044373065, y: 0.457214, z: -0.18230197}
        inSlope: {x: -2.4171165e-16, y: 1.8047804e-14, z: -9.668466e-16}
        outSlope: {x: -5.6399387e-16, y: 7.734773e-15, z: -2.2559755e-15}
        tangentMode: 0
      - serializedVersion: 2
        time: 1.9
        value: {x: -0.044373065, y: 0.457214, z: -0.18230197}
        inSlope: {x: -2.4171252e-16, y: 1.8047868e-14, z: -9.668501e-16}
        outSlope: {x: -0.00015689903, y: 0.00010116018, z: -2.2559755e-15}
        tangentMode: 0
      - serializedVersion: 2
        time: 1.9333333
        value: {x: -0.058394674, y: 0.4672509, z: -0.18230197}
        inSlope: {x: -0.00016312787, y: 0.06492562, z: -9.668466e-16}
        outSlope: {x: -0.000000609643, y: 0.06482974, z: -2.2559594e-15}
        tangentMode: 0
      - serializedVersion: 2
        time: 2.2
        value: {x: -0.053887557, y: 0.47613275, z: -0.18230197}
        inSlope: {x: 0.014111131, y: 0.046264656, z: -9.668466e-16}
        outSlope: {x: 0.014110079, y: 0.04627047, z: -2.2559755e-15}
        tangentMode: 0
      - serializedVersion: 2
        time: 2.6333334
        value: {x: -0.048588857, y: 0.50712943, z: -0.18241003}
        inSlope: {x: 0.0063814563, y: 0.19113314, z: -0.0060771382}
        outSlope: {x: 0.006381821, y: 0.19114481, z: -0.0060794232}
        tangentMode: 0
      - serializedVersion: 2
        time: 2.8666668
        value: {x: -0.046344765, y: 0.5820069, z: -0.18375677}
        inSlope: {x: 0.024515446, y: 0.445965, z: 0.00016084303}
        outSlope: {x: 0.024513952, y: 0.44597915, z: 0.00015818537}
        tangentMode: 0
      - serializedVersion: 2
        time: 3.0333335
        value: {x: -0.0439928, y: 0.64548016, z: -0.18349227}
        inSlope: {x: -0.00066096743, y: 0.21338075, z: 0.008308411}
        outSlope: {x: -0.0006635605, y: 0.2133903, z: 0.008309466}
        tangentMode: 0
      - serializedVersion: 2
        time: 3.266667
        value: {x: -0.045435987, y: 0.68017554, z: -0.1833535}
        inSlope: {x: -0.011147515, y: 0.13499995, z: -0.014020972}
        outSlope: {x: -0.011145841, y: 0.13502598, z: -0.014021359}
        tangentMode: 0
      - serializedVersion: 2
        time: 3.6333334
        value: {x: -0.044472948, y: 0.69042355, z: -0.18311338}
        inSlope: {x: 0.007465109, y: 0.0023246661, z: 0.004054518}
        outSlope: {x: 0.0074656494, y: 0.0023150323, z: 0.0040578675}
        tangentMode: 0
      - serializedVersion: 2
        time: 4.8333335
        value: {x: -0.038820066, y: 0.7253733, z: -0.18245247}
        inSlope: {x: 0.003991471, y: 0.039260425, z: -0.00026139067}
        outSlope: {x: 0.003991942, y: 0.039276153, z: -0.00026163983}
        tangentMode: 0
      - serializedVersion: 2
        time: 6
        value: {x: -0.036099613, y: 0.75358367, z: -0.18266521}
        inSlope: {x: -1.2085583e-16, y: -0, z: -4.834233e-16}
        outSlope: {x: -1.2085583e-16, y: -0, z: -4.834233e-16}
        tangentMode: 0
      m_PreInfinity: 2
      m_PostInfinity: 2
      m_RotationOrder: 4
    path: new_plant_1:pCube1
  - curve:
      serializedVersion: 2
      m_Curve:
      - serializedVersion: 2
        time: 0
        value: {x: -0.06962879, y: 0.73989284, z: -0.18242212}
        inSlope: {x: -5.639933e-16, y: 1.0313019e-14, z: -1.1279866e-15}
        outSlope: {x: -5.639933e-16, y: 1.0313019e-14, z: -1.1279866e-15}
        tangentMode: 0
      - serializedVersion: 2
        time: 1.6333334
        value: {x: -0.06962879, y: 0.73989284, z: -0.18242212}
        inSlope: {x: -2.4171165e-16, y: -1.0313029e-14, z: -4.834233e-16}
        outSlope: {x: -5.6399387e-16, y: 1.0313029e-14, z: -1.1279877e-15}
        tangentMode: 0
      - serializedVersion: 2
        time: 3.266667
        value: {x: -0.06962879, y: 0.73989284, z: -0.18242212}
        inSlope: {x: -2.4171165e-16, y: -1.0313029e-14, z: -4.834233e-16}
        outSlope: {x: -5.6399387e-16, y: 1.0313029e-14, z: -1.1279877e-15}
        tangentMode: 0
      - serializedVersion: 2
        time: 3.8333333
        value: {x: -0.06962879, y: 0.73989284, z: -0.18242212}
        inSlope: {x: -2.4171337e-16, y: -1.0313103e-14, z: -4.8342674e-16}
        outSlope: {x: -0.00000042089485, y: -0.0000063153852, z: -0.0000019102145}
        tangentMode: 0
      - serializedVersion: 2
        time: 4.033334
        value: {x: -0.07614119, y: 0.75797135, z: -0.18230003}
        inSlope: {x: -0.037667602, y: 0.1062934, z: 0.000078925455}
        outSlope: {x: -0.03766718, y: 0.106284626, z: 0.000079895515}
        tangentMode: 0
      - serializedVersion: 2
        time: 5.0000005
        value: {x: -0.1222158, y: 0.8850569, z: -0.18247}
        inSlope: {x: -0.05023816, y: 0.13059968, z: -0.0003667501}
        outSlope: {x: -0.050231855, y: 0.13063487, z: -0.0003686655}
        tangentMode: 0
      - serializedVersion: 2
        time: 5.366667
        value: {x: -0.13735026, y: 0.9276412, z: -0.1825759}
        inSlope: {x: -0.011659943, y: 0.07501409, z: 0.0003233471}
        outSlope: {x: -0.0116532305, y: 0.07502538, z: 0.0003130487}
        tangentMode: 0
      - serializedVersion: 2
        time: 6
        value: {x: -0.13968132, y: 0.9563373, z: -0.18190579}
        inSlope: {x: -4.834233e-16, y: 1.1602159e-14, z: -4.834233e-16}
        outSlope: {x: -4.834233e-16, y: 1.1602159e-14, z: -4.834233e-16}
        tangentMode: 0
      m_PreInfinity: 2
      m_PostInfinity: 2
      m_RotationOrder: 4
    path: LEAF001
  - curve:
      serializedVersion: 2
      m_Curve:
      - serializedVersion: 2
        time: 0
        value: {x: -0.045727152, y: 0.7985903, z: -0.18160033}
        inSlope: {x: -5.639933e-16, y: 9.023893e-15, z: -3.3839597e-15}
        outSlope: {x: -5.639933e-16, y: 9.023893e-15, z: -3.3839597e-15}
        tangentMode: 0
      - serializedVersion: 2
        time: 1.6333334
        value: {x: -0.045727152, y: 0.7985903, z: -0.18160033}
        inSlope: {x: -2.4171165e-16, y: 3.8673864e-15, z: -1.4502699e-15}
        outSlope: {x: -5.6399387e-16, y: 9.023902e-15, z: -3.3839631e-15}
        tangentMode: 0
      - serializedVersion: 2
        time: 3.266667
        value: {x: -0.045727152, y: 0.7985903, z: -0.18160033}
        inSlope: {x: -2.4171165e-16, y: 3.8673864e-15, z: -1.4502699e-15}
        outSlope: {x: -5.6399387e-16, y: 9.023902e-15, z: -3.3839631e-15}
        tangentMode: 0
      - serializedVersion: 2
        time: 4.1
        value: {x: -0.045727152, y: 0.7985903, z: -0.18160033}
        inSlope: {x: -2.4171512e-16, y: 3.867442e-15, z: -1.4502908e-15}
        outSlope: {x: -0.0000012042593, y: 0.000006971151, z: 0.0000068377226}
        tangentMode: 0
      - serializedVersion: 2
        time: 4.4
        value: {x: -0.045615856, y: 0.84940356, z: -0.18117976}
        inSlope: {x: -0.0010348076, y: 0.18939656, z: -0.000042024047}
        outSlope: {x: -0.0010359357, y: 0.18937708, z: -0.000044598644}
        tangentMode: 0
      - serializedVersion: 2
        time: 5.2333336
        value: {x: -0.047058526, y: 0.9974632, z: -0.18115553}
        inSlope: {x: 0.0005718925, y: 0.14567417, z: 0.00096644234}
        outSlope: {x: 0.00057007227, y: 0.14569223, z: 0.0009693492}
        tangentMode: 0
      - serializedVersion: 2
        time: 6
        value: {x: -0.04657904, y: 1.0637653, z: -0.18034112}
        inSlope: {x: -1.2085756e-16, y: 3.6096123e-14, z: -9.668605e-16}
        outSlope: {x: -1.2085756e-16, y: 3.6096123e-14, z: -9.668605e-16}
        tangentMode: 0
      m_PreInfinity: 2
      m_PostInfinity: 2
      m_RotationOrder: 4
    path: leaf001
  - curve:
      serializedVersion: 2
      m_Curve:
      - serializedVersion: 2
        time: 0
        value: {x: -0.03253595, y: 0.8334251, z: -0.18070196}
        inSlope: {x: -8.4598993e-16, y: -0, z: -2.5782548e-15}
        outSlope: {x: -8.4598993e-16, y: -0, z: -2.5782548e-15}
        tangentMode: 0
      - serializedVersion: 2
        time: 1.6333334
        value: {x: -0.03253595, y: 0.8334251, z: -0.18070196}
        inSlope: {x: -3.6256748e-16, y: -0, z: 2.5782573e-15}
        outSlope: {x: -8.459908e-16, y: -0, z: -2.5782573e-15}
        tangentMode: 0
      - serializedVersion: 2
        time: 3.266667
        value: {x: -0.03253595, y: 0.8334251, z: -0.18070196}
        inSlope: {x: -3.6256748e-16, y: -0, z: 2.5782573e-15}
        outSlope: {x: -8.459908e-16, y: -0, z: -2.5782573e-15}
        tangentMode: 0
      - serializedVersion: 2
        time: 4.6666665
        value: {x: -0.03253595, y: 0.8334251, z: -0.18070196}
        inSlope: {x: -3.625727e-16, y: -0, z: 2.5782942e-15}
        outSlope: {x: 0.00000030072653, y: 0.000019147366, z: 0.000000027777645}
        tangentMode: 0
      - serializedVersion: 2
        time: 4.8
        value: {x: -0.031409062, y: 0.85152626, z: -0.18066956}
        inSlope: {x: 0.01762176, y: 0.13134846, z: 0.005978516}
        outSlope: {x: 0.01762214, y: 0.13135146, z: 0.005982973}
        tangentMode: 0
      - serializedVersion: 2
        time: 5.1000004
        value: {x: -0.028623924, y: 0.88990057, z: -0.18035108}
        inSlope: {x: 0.006445684, y: 0.12219308, z: -0.00044986216}
        outSlope: {x: 0.006445428, y: 0.12220172, z: -0.0004546238}
        tangentMode: 0
      - serializedVersion: 2
        time: 5.933334
        value: {x: -0.02415793, y: 0.9507581, z: -0.17973794}
        inSlope: {x: 0.0018178324, y: 0.012369952, z: 0.0004545619}
        outSlope: {x: 0.0018182287, y: 0.012361935, z: 0.00045102488}
        tangentMode: 0
      - serializedVersion: 2
        time: 6
        value: {x: -0.02409503, y: 0.9511775, z: -0.17972218}
        inSlope: {x: 0.00000029062556, y: -0.0000027688054, z: 0.0000021316705}
        outSlope: {x: 0.00000029062556, y: -0.0000027688054, z: 0.0000021316705}
        tangentMode: 0
      m_PreInfinity: 2
      m_PostInfinity: 2
      m_RotationOrder: 4
    path: leaf002
  - curve:
      serializedVersion: 2
      m_Curve:
      - serializedVersion: 2
        time: 0
        value: {x: -0.030812962, y: 0.77243036, z: -0.18279675}
        inSlope: {x: -5.639933e-16, y: 1.8047785e-14, z: -4.5119463e-15}
        outSlope: {x: -5.639933e-16, y: 1.8047785e-14, z: -4.5119463e-15}
        tangentMode: 0
      - serializedVersion: 2
        time: 1.6333334
        value: {x: -0.030812962, y: 0.77243036, z: -0.18279675}
        inSlope: {x: -2.4171165e-16, y: 7.734773e-15, z: -1.9336932e-15}
        outSlope: {x: -5.6399387e-16, y: 1.8047804e-14, z: -4.511951e-15}
        tangentMode: 0
      - serializedVersion: 2
        time: 3.266667
        value: {x: -0.030812962, y: 0.77243036, z: -0.18279675}
        inSlope: {x: -2.4171165e-16, y: 7.734773e-15, z: -1.9336932e-15}
        outSlope: {x: -5.6399387e-16, y: 1.8047804e-14, z: -4.511951e-15}
        tangentMode: 0
      - serializedVersion: 2
        time: 4
        value: {x: -0.030812962, y: 0.77243036, z: -0.18279675}
        inSlope: {x: -2.4171337e-16, y: 7.734828e-15, z: -1.933707e-15}
        outSlope: {x: 0.00000010685311, y: 0.0000336604, z: 0.00000027684942}
        tangentMode: 0
      - serializedVersion: 2
        time: 4.4333334
        value: {x: -0.021361332, y: 0.8369753, z: -0.18318766}
        inSlope: {x: 0.018170808, y: 0.14839627, z: -0.0010223914}
        outSlope: {x: 0.01817114, y: 0.1483955, z: -0.0010210072}
        tangentMode: 0
      - serializedVersion: 2
        time: 4.6333337
        value: {x: -0.019201862, y: 0.8671352, z: -0.18340632}
        inSlope: {x: 0.025094496, y: 0.17759396, z: 0.00014622389}
        outSlope: {x: 0.025092727, y: 0.1775779, z: 0.00014539545}
        tangentMode: 0
      - serializedVersion: 2
        time: 4.766667
        value: {x: -0.0154159125, y: 0.89132154, z: -0.18340813}
        inSlope: {x: 0.027575945, y: 0.17765884, z: -0.000945666}
        outSlope: {x: 0.027574146, y: 0.17764656, z: -0.0009503857}
        tangentMode: 0
      - serializedVersion: 2
        time: 4.9333334
        value: {x: -0.011016353, y: 0.9200383, z: -0.18368512}
        inSlope: {x: 0.02259944, y: 0.15915953, z: -0.0010973591}
        outSlope: {x: 0.022600241, y: 0.15916295, z: -0.0010920161}
        tangentMode: 0
      - serializedVersion: 2
        time: 5.266667
        value: {x: -0.0042691673, y: 0.9703066, z: -0.18397693}
        inSlope: {x: 0.0095019555, y: 0.09689904, z: 0.0000016056797}
        outSlope: {x: 0.009502595, y: 0.09690746, z: 0.0000004152144}
        tangentMode: 0
      - serializedVersion: 2
        time: 5.9666667
        value: {x: -0.001196923, y: 1.0201758, z: -0.18216582}
        inSlope: {x: -0.0000000054280487, y: -0.000007862975, z: 0.000000996589}
        outSlope: {x: -2.6437212e-17, y: -0, z: -2.2559755e-15}
        tangentMode: 0
      - serializedVersion: 2
        time: 6
        value: {x: -0.001196923, y: 1.0201758, z: -0.18216582}
        inSlope: {x: -1.1330234e-17, y: -0, z: -9.668466e-16}
        outSlope: {x: -1.1330234e-17, y: -0, z: -9.668466e-16}
        tangentMode: 0
      m_PreInfinity: 2
      m_PostInfinity: 2
      m_RotationOrder: 4
    path: LEAF002
  - curve:
      serializedVersion: 2
      m_Curve:
      - serializedVersion: 2
        time: 0
        value: {x: -0.0113688605, y: 1.0723234, z: -0.18266523}
        inSlope: {x: -1.4099832e-16, y: -0, z: -1.9336913e-15}
        outSlope: {x: -1.4099832e-16, y: -0, z: -1.9336913e-15}
        tangentMode: 0
      - serializedVersion: 2
        time: 1.6333334
        value: {x: -0.0113688605, y: 1.0723234, z: -0.18266523}
        inSlope: {x: -6.042791e-17, y: -0, z: -4.511951e-15}
        outSlope: {x: -1.4099847e-16, y: -0, z: -1.9336932e-15}
        tangentMode: 0
      - serializedVersion: 2
        time: 3.266667
        value: {x: -0.0113688605, y: 1.0723234, z: -0.18266523}
        inSlope: {x: -6.042791e-17, y: -0, z: -4.511951e-15}
        outSlope: {x: -1.4099847e-16, y: -0, z: -1.9336932e-15}
        tangentMode: 0
      - serializedVersion: 2
        time: 4.9333334
        value: {x: -0.0113688605, y: 1.0723234, z: -0.18266523}
        inSlope: {x: -6.042791e-17, y: -0, z: -4.511951e-15}
        outSlope: {x: -1.4099847e-16, y: -0, z: -1.9336932e-15}
        tangentMode: 0
      - serializedVersion: 2
        time: 5.3333335
        value: {x: -0.0113688605, y: 1.0723234, z: -0.18266523}
        inSlope: {x: -6.042791e-17, y: -0, z: -4.511951e-15}
        outSlope: {x: -0.00000014801616, y: 0.000024473578, z: -1.9336932e-15}
        tangentMode: 0
      - serializedVersion: 2
        time: 5.5000005
        value: {x: -0.015884098, y: 1.0303589, z: -0.18266521}
        inSlope: {x: -0.046793472, y: -0.5832222, z: -4.834233e-16}
        outSlope: {x: -0.046793763, y: -0.58324605, z: -1.1279877e-15}
        tangentMode: 0
      - serializedVersion: 2
        time: 5.6333337
        value: {x: -0.021762114, y: 0.93967414, z: -0.18266521}
        inSlope: {x: -0.04053977, y: -0.7662577, z: -4.834233e-16}
        outSlope: {x: -0.04054045, y: -0.76623493, z: -1.1279877e-15}
        tangentMode: 0
      - serializedVersion: 2
        time: 5.766667
        value: {x: -0.028586589, y: 0.8389723, z: -0.18266521}
        inSlope: {x: -0.077757314, y: -0.7170925, z: -4.834164e-16}
        outSlope: {x: -0.077753454, y: -0.7170283, z: -1.1279877e-15}
        tangentMode: 0
      - serializedVersion: 2
        time: 5.866667
        value: {x: -0.03471656, y: 0.77658725, z: -0.18266521}
        inSlope: {x: -0.023081237, y: -0.4670019, z: -4.834233e-16}
        outSlope: {x: -0.023079755, y: -0.4670008, z: -1.1279877e-15}
        tangentMode: 0
      - serializedVersion: 2
        time: 6
        value: {x: -0.036099613, y: 0.75358367, z: -0.18266521}
        inSlope: {x: -1.2085583e-16, y: -0, z: -4.834233e-16}
        outSlope: {x: -1.2085583e-16, y: -0, z: -4.834233e-16}
        tangentMode: 0
      m_PreInfinity: 2
      m_PostInfinity: 2
      m_RotationOrder: 4
    path: leaf
  - curve:
      serializedVersion: 2
      m_Curve:
      - serializedVersion: 2
        time: 0
        value: {x: -0.09265853, y: 0.31952414, z: -0.1838704}
        inSlope: {x: 0, y: 0, z: 0}
        outSlope: {x: 0, y: 0, z: 0}
        tangentMode: 0
      - serializedVersion: 2
        time: 6
        value: {x: -0.09265853, y: 0.31952414, z: -0.1838704}
        inSlope: {x: 0, y: 0, z: 0}
        outSlope: {x: 0, y: 0, z: 0}
        tangentMode: 0
      m_PreInfinity: 2
      m_PostInfinity: 2
      m_RotationOrder: 4
    path: Box001
  m_ScaleCurves:
  - curve:
      serializedVersion: 2
      m_Curve:
      - serializedVersion: 2
        time: 0
        value: {x: 0.99999994, y: 0.99999994, z: 0.99999994}
        inSlope: {x: 0, y: 0, z: 0}
        outSlope: {x: 0, y: 0, z: 0}
        tangentMode: 0
      - serializedVersion: 2
        time: 6.0000005
        value: {x: 0.99999994, y: 0.99999994, z: 0.99999994}
        inSlope: {x: 0, y: 0, z: 0}
        outSlope: {x: 0, y: 0, z: 0}
        tangentMode: 0
      m_PreInfinity: 2
      m_PostInfinity: 2
      m_RotationOrder: 4
    path: "\xA1\xA1\xD7\xFD\xD7\xFB"
  - curve:
      serializedVersion: 2
      m_Curve:
      - serializedVersion: 2
        time: 0
        value: {x: 100, y: 100, z: 100}
        inSlope: {x: 0, y: 0, z: 0}
        outSlope: {x: 0, y: 0, z: 0}
        tangentMode: 0
      - serializedVersion: 2
        time: 0.033333335
        value: {x: 100, y: 100, z: 100}
        inSlope: {x: 0, y: 0, z: 0}
        outSlope: {x: 0, y: 0, z: 0}
        tangentMode: 0
      m_PreInfinity: 2
      m_PostInfinity: 2
      m_RotationOrder: 4
    path: "\xD7\xFE\xD7\xFC 1"
  - curve:
      serializedVersion: 2
      m_Curve:
      - serializedVersion: 2
        time: 0
        value: {x: 100, y: 100, z: 100}
        inSlope: {x: 0, y: 0, z: 0}
        outSlope: {x: 0, y: 0, z: 0}
        tangentMode: 0
      - serializedVersion: 2
        time: 0.033333335
        value: {x: 100, y: 100, z: 100}
        inSlope: {x: 0, y: 0, z: 0}
        outSlope: {x: 0, y: 0, z: 0}
        tangentMode: 0
      m_PreInfinity: 2
      m_PostInfinity: 2
      m_RotationOrder: 4
    path: "\xA1\xA1\xD7\xFD\xD7\xFB 1"
  - curve:
      serializedVersion: 2
      m_Curve:
      - serializedVersion: 2
        time: 0
        value: {x: 100, y: 100, z: 100}
        inSlope: {x: 0, y: 0, z: 0}
        outSlope: {x: 0, y: 0, z: 0}
        tangentMode: 0
      - serializedVersion: 2
        time: 0.033333335
        value: {x: 100, y: 100, z: 100}
        inSlope: {x: 0, y: 0, z: 0}
        outSlope: {x: 0, y: 0, z: 0}
        tangentMode: 0
      m_PreInfinity: 2
      m_PostInfinity: 2
      m_RotationOrder: 4
    path: "\xD7\xFE\xD7\xFC 2"
  - curve:
      serializedVersion: 2
      m_Curve:
      - serializedVersion: 2
        time: 0
        value: {x: 100, y: 100, z: 100}
        inSlope: {x: 0, y: 0, z: 0}
        outSlope: {x: 0, y: 0, z: 0}
        tangentMode: 0
      - serializedVersion: 2
        time: 0.033333335
        value: {x: 100, y: 100, z: 100}
        inSlope: {x: 0, y: 0, z: 0}
        outSlope: {x: 0, y: 0, z: 0}
        tangentMode: 0
      m_PreInfinity: 2
      m_PostInfinity: 2
      m_RotationOrder: 4
    path: "\xA1\xA1\xD7\xFD\xD7\xFB 2"
  - curve:
      serializedVersion: 2
      m_Curve:
      - serializedVersion: 2
        time: 0.43333337
        value: {x: 0.000010004065, y: 0.000010004065, z: 0.000010004065}
        inSlope: {x: 0.12047125, y: 0.12047125, z: 0.12047125}
        outSlope: {x: 0.12047125, y: 0.12047125, z: 0.12047125}
        tangentMode: 0
      - serializedVersion: 2
        time: 0.4666667
        value: {x: 0.004025712, y: 0.004025712, z: 0.004025712}
        inSlope: {x: 0.23482633, y: 0.23482633, z: 0.23482633}
        outSlope: {x: 0.23482633, y: 0.23482633, z: 0.23482633}
        tangentMode: 0
      - serializedVersion: 2
        time: 0.8333334
        value: {x: 0.41702774, y: 0.41702774, z: 0.41702774}
        inSlope: {x: 1.6427982, y: 1.6427982, z: 1.6427982}
        outSlope: {x: 1.6427982, y: 1.6427982, z: 1.6427982}
        tangentMode: 0
      - serializedVersion: 2
        time: 1.3000001
        value: {x: 0.99598426, y: 0.99598426, z: 0.99598426}
        inSlope: {x: 0.23482673, y: 0.23482673, z: 0.23482673}
        outSlope: {x: 0.23482673, y: 0.23482673, z: 0.23482673}
        tangentMode: 0
      - serializedVersion: 2
        time: 1.5000001
        value: {x: 0.99999994, y: 0.99999994, z: 0.99999994}
        inSlope: {x: 0, y: 0, z: 0}
        outSlope: {x: 0, y: 0, z: 0}
        tangentMode: 0
      - serializedVersion: 2
        time: 3.1666667
        value: {x: 0.99999994, y: 0.99999994, z: 0.99999994}
        inSlope: {x: 0, y: 0, z: 0}
        outSlope: {x: 0, y: 0, z: 0}
        tangentMode: 0
      - serializedVersion: 2
        time: 4.8
        value: {x: 0.99999994, y: 0.99999994, z: 0.99999994}
        inSlope: {x: 0, y: 0, z: 0}
        outSlope: {x: 0, y: 0, z: 0}
        tangentMode: 0
      - serializedVersion: 2
        time: 6.0000005
        value: {x: 0.99999994, y: 0.99999994, z: 0.99999994}
        inSlope: {x: 0, y: 0, z: 0}
        outSlope: {x: 0, y: 0, z: 0}
        tangentMode: 0
      m_PreInfinity: 2
      m_PostInfinity: 2
      m_RotationOrder: 4
    path: root
  - curve:
      serializedVersion: 2
      m_Curve:
      - serializedVersion: 2
        time: 1.3333334
        value: {x: 1, y: 1, z: 1}
        inSlope: {x: 0, y: 0, z: 0}
        outSlope: {x: 0, y: 0, z: 0}
        tangentMode: 0
      - serializedVersion: 2
        time: 1.6666667
        value: {x: 1, y: 1, z: 1}
        inSlope: {x: 0, y: 0, z: 0}
        outSlope: {x: 0, y: 0, z: 0}
        tangentMode: 0
      m_PreInfinity: 2
      m_PostInfinity: 2
      m_RotationOrder: 4
    path: root/Line001
  - curve:
      serializedVersion: 2
      m_Curve:
      - serializedVersion: 2
        time: 1.3333334
        value: {x: 0.23312739, y: 0.23312739, z: 0.23312739}
        inSlope: {x: 0, y: 0, z: 0}
        outSlope: {x: 0, y: 0, z: 0}
        tangentMode: 0
      - serializedVersion: 2
        time: 1.6666667
        value: {x: 0.23312739, y: 0.23312739, z: 0.23312739}
        inSlope: {x: 0, y: 0, z: 0}
        outSlope: {x: 0, y: 0, z: 0}
        tangentMode: 0
      m_PreInfinity: 2
      m_PostInfinity: 2
      m_RotationOrder: 4
    path: root/Text001
  - curve:
      serializedVersion: 2
      m_Curve:
      - serializedVersion: 2
        time: 1.3333334
        value: {x: 1, y: 1, z: 1}
        inSlope: {x: 0, y: 0, z: 0}
        outSlope: {x: 0, y: 0, z: 0}
        tangentMode: 0
      - serializedVersion: 2
        time: 1.6666667
        value: {x: 1, y: 1, z: 1}
        inSlope: {x: 0, y: 0, z: 0}
        outSlope: {x: 0, y: 0, z: 0}
        tangentMode: 0
      m_PreInfinity: 2
      m_PostInfinity: 2
      m_RotationOrder: 4
    path: root/Rectangle001
  - curve:
      serializedVersion: 2
      m_Curve:
      - serializedVersion: 2
        time: 0
        value: {x: 0.000010000001, y: 0.000010000001, z: 0.000010000001}
        inSlope: {x: 0, y: 0, z: 0}
        outSlope: {x: 0, y: 0, z: 0}
        tangentMode: 0
      - serializedVersion: 2
        time: 1.6333334
        value: {x: 0.000010000001, y: 0.000010000001, z: 0.000010000001}
        inSlope: {x: 0, y: 0, z: 0}
        outSlope: {x: 0, y: 0, z: 0}
        tangentMode: 0
      - serializedVersion: 2
        time: 1.8000001
        value: {x: 0.000010000001, y: 0.000010000001, z: 0.000010000001}
        inSlope: {x: 0, y: 0, z: 0}
        outSlope: {x: 0, y: 0, z: 0}
        tangentMode: 0
      - serializedVersion: 2
        time: 1.8333334
        value: {x: 0.000010000001, y: 0.000010000001, z: 0.000010000001}
        inSlope: {x: 1.560406, y: 1.560406, z: 1.560406}
        outSlope: {x: 1.560406, y: 1.560406, z: 1.560406}
        tangentMode: 0
      - serializedVersion: 2
        time: 1.8666668
        value: {x: 0.10403734, y: 0.10403734, z: 0.10403734}
        inSlope: {x: 5.2802706, y: 5.2802706, z: 5.2802706}
        outSlope: {x: 5.2802706, y: 5.2802706, z: 5.2802706}
        tangentMode: 0
      - serializedVersion: 2
        time: 1.9000001
        value: {x: 0.35202807, y: 0.35202807, z: 0.35202807}
        inSlope: {x: 8.159199, y: 8.159199, z: 8.159199}
        outSlope: {x: 8.159199, y: 8.159199, z: 8.159199}
        tangentMode: 0
      - serializedVersion: 2
        time: 1.9333334
        value: {x: 0.6479834, y: 0.6479834, z: 0.6479834}
        inSlope: {x: 8.159189, y: 8.159189, z: 8.159189}
        outSlope: {x: 8.159189, y: 8.159189, z: 8.159189}
        tangentMode: 0
      - serializedVersion: 2
        time: 1.9666668
        value: {x: 0.8959744, y: 0.8959744, z: 0.8959744}
        inSlope: {x: 5.2802467, y: 5.2802467, z: 5.2802467}
        outSlope: {x: 5.2802467, y: 5.2802467, z: 5.2802467}
        tangentMode: 0
      - serializedVersion: 2
        time: 2
        value: {x: 1, y: 1, z: 1}
        inSlope: {x: 3.1207821, y: 3.1207821, z: 3.1207821}
        outSlope: {x: 3.1207821, y: 3.1207821, z: 3.1207821}
        tangentMode: 0
      m_PreInfinity: 2
      m_PostInfinity: 2
      m_RotationOrder: 4
    path: root001/Line002
  - curve:
      serializedVersion: 2
      m_Curve:
      - serializedVersion: 2
        time: 0
        value: {x: 1, y: 1, z: 1}
        inSlope: {x: 0, y: 0, z: 0}
        outSlope: {x: 0, y: 0, z: 0}
        tangentMode: 0
      - serializedVersion: 2
        time: 6.0000005
        value: {x: 1, y: 1, z: 1}
        inSlope: {x: 0, y: 0, z: 0}
        outSlope: {x: 0, y: 0, z: 0}
        tangentMode: 0
      m_PreInfinity: 2
      m_PostInfinity: 2
      m_RotationOrder: 4
    path: root002
  - curve:
      serializedVersion: 2
      m_Curve:
      - serializedVersion: 2
        time: 5.366667
        value: {x: 0.0000100000025, y: 0.0000100000025, z: 0.0000100000025}
        inSlope: {x: 2.222909, y: 2.222909, z: 2.222909}
        outSlope: {x: 2.222909, y: 2.222909, z: 2.222909}
        tangentMode: 0
      - serializedVersion: 2
        time: 5.4
        value: {x: 0.074106894, y: 0.074106894, z: 0.074106894}
        inSlope: {x: 3.889305, y: 3.889305, z: 3.889305}
        outSlope: {x: 3.889305, y: 3.889305, z: 3.889305}
        tangentMode: 0
      - serializedVersion: 2
        time: 5.4333334
        value: {x: 0.25929677, y: 0.25929677, z: 0.25929677}
        inSlope: {x: 6.388484, y: 6.388484, z: 6.388484}
        outSlope: {x: 6.388484, y: 6.388484, z: 6.388484}
        tangentMode: 0
      - serializedVersion: 2
        time: 5.5000005
        value: {x: 0.7407169, y: 0.7407169, z: 0.7407169}
        inSlope: {x: 6.388454, y: 6.388454, z: 6.388454}
        outSlope: {x: 6.388454, y: 6.388454, z: 6.388454}
        tangentMode: 0
      - serializedVersion: 2
        time: 5.533334
        value: {x: 0.9259054, y: 0.9259054, z: 0.9259054}
        inSlope: {x: 3.8892505, y: 3.8892505, z: 3.8892505}
        outSlope: {x: 3.8892505, y: 3.8892505, z: 3.8892505}
        tangentMode: 0
      - serializedVersion: 2
        time: 5.6000004
        value: {x: 1, y: 1, z: 1}
        inSlope: {x: 0, y: 0, z: 0}
        outSlope: {x: 0, y: 0, z: 0}
        tangentMode: 0
      - serializedVersion: 2
        time: 6.0000005
        value: {x: 1, y: 1, z: 1}
        inSlope: {x: 0, y: 0, z: 0}
        outSlope: {x: 0, y: 0, z: 0}
        tangentMode: 0
      m_PreInfinity: 2
      m_PostInfinity: 2
      m_RotationOrder: 4
    path: root002/Line003
  - curve:
      serializedVersion: 2
      m_Curve:
      - serializedVersion: 2
        time: 0
        value: {x: -1, y: -1, z: -1}
        inSlope: {x: 0, y: 0, z: 0}
        outSlope: {x: 0, y: 0, z: 0}
        tangentMode: 0
      - serializedVersion: 2
        time: 1.9333334
        value: {x: -1, y: -1, z: -1}
        inSlope: {x: 0, y: 0, z: 0}
        outSlope: {x: 0, y: 0, z: 0}
        tangentMode: 0
      m_PreInfinity: 2
      m_PostInfinity: 2
      m_RotationOrder: 4
    path: root003
  - curve:
      serializedVersion: 2
      m_Curve:
      - serializedVersion: 2
        time: 1.9000001
        value: {x: 0.000010000001, y: 0.000010000001, z: 0.000010000001}
        inSlope: {x: 3.1208127, y: 3.1208127, z: 3.1208127}
        outSlope: {x: 3.1208127, y: 3.1208127, z: 3.1208127}
        tangentMode: 0
      - serializedVersion: 2
        time: 1.9333334
        value: {x: 0.10403699, y: 0.10403699, z: 0.10403699}
        inSlope: {x: 5.280269, y: 5.280269, z: 5.280269}
        outSlope: {x: 5.280269, y: 5.280269, z: 5.280269}
        tangentMode: 0
      - serializedVersion: 2
        time: 1.9666668
        value: {x: 0.3520285, y: 0.3520285, z: 0.3520285}
        inSlope: {x: 8.159199, y: 8.159199, z: 8.159199}
        outSlope: {x: 8.159199, y: 8.159199, z: 8.159199}
        tangentMode: 0
      - serializedVersion: 2
        time: 2
        value: {x: 0.6479829, y: 0.6479829, z: 0.6479829}
        inSlope: {x: 8.159189, y: 8.159189, z: 8.159189}
        outSlope: {x: 8.159189, y: 8.159189, z: 8.159189}
        tangentMode: 0
      - serializedVersion: 2
        time: 2.0333335
        value: {x: 0.89597464, y: 0.89597464, z: 0.89597464}
        inSlope: {x: 5.2802353, y: 5.2802353, z: 5.2802353}
        outSlope: {x: 5.2802353, y: 5.2802353, z: 5.2802353}
        tangentMode: 0
      - serializedVersion: 2
        time: 2.0666668
        value: {x: 1, y: 1, z: 1}
        inSlope: {x: 3.1207638, y: 3.1207638, z: 3.1207638}
        outSlope: {x: 3.1207638, y: 3.1207638, z: 3.1207638}
        tangentMode: 0
      m_PreInfinity: 2
      m_PostInfinity: 2
      m_RotationOrder: 4
    path: root003/Line004
  - curve:
      serializedVersion: 2
      m_Curve:
      - serializedVersion: 2
        time: 0
        value: {x: 0.99999994, y: 0.13469449, z: 0.99999994}
        inSlope: {x: 0, y: 0, z: 0}
        outSlope: {x: 0, y: 0, z: 0}
        tangentMode: 0
      - serializedVersion: 2
        time: 6.0000005
        value: {x: 0.99999994, y: 0.13469449, z: 0.99999994}
        inSlope: {x: 0, y: 0, z: 0}
        outSlope: {x: 0, y: 0, z: 0}
        tangentMode: 0
      m_PreInfinity: 2
      m_PostInfinity: 2
      m_RotationOrder: 4
    path: SOIL
  - curve:
      serializedVersion: 2
      m_Curve:
      - serializedVersion: 2
        time: 0
        value: {x: 0.00001, y: 0.00001, z: 0.00001}
        inSlope: {x: 0, y: 0, z: 0}
        outSlope: {x: 0, y: 0, z: 0}
        tangentMode: 0
      - serializedVersion: 2
        time: 1.6333334
        value: {x: 0.00001, y: 0.00001, z: 0.00001}
        inSlope: {x: 0, y: 0, z: 0}
        outSlope: {x: 0, y: 0, z: 0}
        tangentMode: 0
      - serializedVersion: 2
        time: 3.266667
        value: {x: 0.00001, y: 0.00001, z: 0.00001}
        inSlope: {x: 0, y: 0, z: 0}
        outSlope: {x: 0, y: 0, z: 0}
        tangentMode: 0
      - serializedVersion: 2
        time: 3.966667
        value: {x: 0.00001, y: 0.00001, z: 0.00001}
        inSlope: {x: 0, y: 0, z: 0}
        outSlope: {x: 0, y: 0, z: 0}
        tangentMode: 0
      - serializedVersion: 2
        time: 4
        value: {x: 0.00001, y: 0.00001, z: 0.00001}
        inSlope: {x: 15.144772, y: 15.14477, z: 21.617756}
        outSlope: {x: 15.144772, y: 15.14477, z: 21.617756}
        tangentMode: 0
      - serializedVersion: 2
        time: 4.033334
        value: {x: 1.0096749, y: 1.0096748, z: 1.441213}
        inSlope: {x: 15.099228, y: 15.0985985, z: 21.55105}
        outSlope: {x: 15.099228, y: 15.0985985, z: 21.55105}
        tangentMode: 0
      - serializedVersion: 2
        time: 4.066667
        value: {x: 1.0066386, y: 1.0065967, z: 1.4367659}
        inSlope: {x: -0.17553733, y: -0.17795937, z: -0.2571025}
        outSlope: {x: -0.17553733, y: -0.17795937, z: -0.2571025}
        tangentMode: 0
      - serializedVersion: 2
        time: 4.6333337
        value: {x: 0.63425106, y: 0.62907326, z: 0.8913467}
        inSlope: {x: -0.17553197, y: -0.17795311, z: -0.25709623}
        outSlope: {x: -0.17553197, y: -0.17795311, z: -0.25709623}
        tangentMode: 0
      - serializedVersion: 2
        time: 4.8
        value: {x: 0.6312148, y: 0.62599516, z: 0.88689965}
        inSlope: {x: 0, y: 0, z: 0}
        outSlope: {x: 0, y: 0, z: 0}
        tangentMode: 0
      - serializedVersion: 2
        time: 5.1333337
        value: {x: 0.6312148, y: 0.62599516, z: 0.88689965}
        inSlope: {x: -0.044258278, y: -0.04389171, z: -0.062188864}
        outSlope: {x: -0.044258278, y: -0.04389171, z: -0.062188864}
        tangentMode: 0
      - serializedVersion: 2
        time: 5.533334
        value: {x: 0.3345351, y: 0.33176878, z: 0.47004262}
        inSlope: {x: -1.1317601, y: -1.122401, z: -1.5902077}
        outSlope: {x: -1.1317601, y: -1.122401, z: -1.5902077}
        tangentMode: 0
      - serializedVersion: 2
        time: 5.9
        value: {x: 0.011487919, y: 0.011393003, z: 0.01613733}
        inSlope: {x: -0.3321838, y: -0.32943684, z: -0.4667428}
        outSlope: {x: -0.3321838, y: -0.32943684, z: -0.4667428}
        tangentMode: 0
      - serializedVersion: 2
        time: 5.933334
        value: {x: 0.0029604794, y: 0.0029360806, z: 0.0041556424}
        inSlope: {x: -0.17216712, y: -0.1707434, z: -0.24190761}
        outSlope: {x: -0.17216712, y: -0.1707434, z: -0.24190761}
        tangentMode: 0
      - serializedVersion: 2
        time: 5.966667
        value: {x: 0.00001, y: 0.00001, z: 0.00001}
        inSlope: {x: -0.04425723, y: -0.043891247, z: -0.062184695}
        outSlope: {x: -0.04425723, y: -0.043891247, z: -0.062184695}
        tangentMode: 0
      - serializedVersion: 2
        time: 6.0000005
        value: {x: 0.00001, y: 0.00001, z: 0.00001}
        inSlope: {x: 0, y: 0, z: 0}
        outSlope: {x: 0, y: 0, z: 0}
        tangentMode: 0
      m_PreInfinity: 2
      m_PostInfinity: 2
      m_RotationOrder: 4
    path: sead coat
  - curve:
      serializedVersion: 2
      m_Curve:
      - serializedVersion: 2
        time: 0
        value: {x: 0.00000033339572, y: 0.00000033339572, z: 0.00000033339572}
        inSlope: {x: 0, y: 0, z: 0}
        outSlope: {x: 0, y: 0, z: 0}
        tangentMode: 0
      - serializedVersion: 2
        time: 1.6333334
        value: {x: 0.00000033339572, y: 0.00000033339572, z: 0.00000033339572}
        inSlope: {x: 0, y: 0, z: 0}
        outSlope: {x: 0, y: 0, z: 0}
        tangentMode: 0
      - serializedVersion: 2
        time: 1.8333334
        value: {x: 0.00000033339572, y: 0.00000033339572, z: 0.00000033339572}
        inSlope: {x: -1.2789736e-12, y: -1.2789736e-12, z: -1.2789736e-12}
        outSlope: {x: -1.2789736e-12, y: -1.2789736e-12, z: -1.2789736e-12}
        tangentMode: 0
      - serializedVersion: 2
        time: 1.8666668
        value: {x: 0.00000033339563, y: 0.00000033339563, z: 0.00000033339563}
        inSlope: {x: 0.00000026129098, y: 0.00000026129098, z: 0.00000026129098}
        outSlope: {x: 0.00000026129098, y: 0.00000026129098, z: 0.00000026129098}
        tangentMode: 0
      - serializedVersion: 2
        time: 1.9000001
        value: {x: 0.0000003508151, y: 0.0000003508151, z: 0.0000003508151}
        inSlope: {x: 0.18268324, y: 0.18268324, z: 0.18268324}
        outSlope: {x: 0.18268324, y: 0.18268324, z: 0.18268324}
        tangentMode: 0
      - serializedVersion: 2
        time: 1.9333334
        value: {x: 0.012179204, y: 0.012179204, z: 0.012179204}
        inSlope: {x: 0.6641859, y: 0.6641859, z: 0.6641859}
        outSlope: {x: 0.6641859, y: 0.6641859, z: 0.6641859}
        tangentMode: 0
      - serializedVersion: 2
        time: 1.9666668
        value: {x: 0.044279482, y: 0.044279482, z: 0.044279482}
        inSlope: {x: 1.1621252, y: 1.1621252, z: 1.1621252}
        outSlope: {x: 1.1621252, y: 1.1621252, z: 1.1621252}
        tangentMode: 0
      - serializedVersion: 2
        time: 2.0666668
        value: {x: 0.19367488, y: 0.19367488, z: 0.19367488}
        inSlope: {x: 1.4607749, y: 1.4607749, z: 1.4607749}
        outSlope: {x: 1.4607749, y: 1.4607749, z: 1.4607749}
        tangentMode: 0
      - serializedVersion: 2
        time: 2.1333334
        value: {x: 0.2711496, y: 0.2711496, z: 0.2711496}
        inSlope: {x: 0.66418266, y: 0.66418266, z: 0.66418266}
        outSlope: {x: 0.66418266, y: 0.66418266, z: 0.66418266}
        tangentMode: 0
      - serializedVersion: 2
        time: 2.2
        value: {x: 0.28324863, y: 0.28324863, z: 0.28324863}
        inSlope: {x: -0.0046044635, y: -0.0046044635, z: -0.0046044635}
        outSlope: {x: -0.0046044635, y: -0.0046044635, z: -0.0046044635}
        tangentMode: 0
      - serializedVersion: 2
        time: 2.966667
        value: {x: 0.2668033, y: 0.2668033, z: 0.2668033}
        inSlope: {x: -0.012641644, y: -0.012641644, z: -0.012641644}
        outSlope: {x: -0.012641644, y: -0.012641644, z: -0.012641644}
        tangentMode: 0
      - serializedVersion: 2
        time: 3.0666668
        value: {x: 0.27564082, y: 0.27564082, z: 0.27564082}
        inSlope: {x: 0.23605072, y: 0.23605072, z: 0.23605072}
        outSlope: {x: 0.23605072, y: 0.23605072, z: 0.23605072}
        tangentMode: 0
      - serializedVersion: 2
        time: 3.2000003
        value: {x: 0.3142645, y: 0.3142645, z: 0.3142645}
        inSlope: {x: 0.26832616, y: 0.26832616, z: 0.26832616}
        outSlope: {x: 0.26832616, y: 0.26832616, z: 0.26832616}
        tangentMode: 0
      - serializedVersion: 2
        time: 3.3333335
        value: {x: 0.36137205, y: 0.36137205, z: 0.36137205}
        inSlope: {x: 0.505275, y: 0.505275, z: 0.505275}
        outSlope: {x: 0.505275, y: 0.505275, z: 0.505275}
        tangentMode: 0
      - serializedVersion: 2
        time: 3.7000003
        value: {x: 0.55185634, y: 0.55185634, z: 0.55185634}
        inSlope: {x: 0.58885247, y: 0.58885247, z: 0.58885247}
        outSlope: {x: 0.58885247, y: 0.58885247, z: 0.58885247}
        tangentMode: 0
      - serializedVersion: 2
        time: 4.166667
        value: {x: 0.96097755, y: 0.96097755, z: 0.96097755}
        inSlope: {x: 1.1314685, y: 1.1314685, z: 1.1314685}
        outSlope: {x: 1.1314685, y: 1.1314685, z: 1.1314685}
        tangentMode: 0
      - serializedVersion: 2
        time: 5.8333335
        value: {x: 2.7270286, y: 2.7270286, z: 2.7270286}
        inSlope: {x: 0.25859737, y: 0.25859737, z: 0.25859737}
        outSlope: {x: 0.25859737, y: 0.25859737, z: 0.25859737}
        tangentMode: 0
      - serializedVersion: 2
        time: 6.0000005
        value: {x: 2.7445996, y: 2.7445996, z: 2.7445996}
        inSlope: {x: 0, y: 0, z: 0}
        outSlope: {x: 0, y: 0, z: 0}
        tangentMode: 0
      m_PreInfinity: 2
      m_PostInfinity: 2
      m_RotationOrder: 4
    path: new_plant_1:pCube1
  - curve:
      serializedVersion: 2
      m_Curve:
      - serializedVersion: 2
        time: 0
        value: {x: 0.00001, y: 0.00001, z: 0.00001}
        inSlope: {x: 0, y: 0, z: 0}
        outSlope: {x: 0, y: 0, z: 0}
        tangentMode: 0
      - serializedVersion: 2
        time: 1.6333334
        value: {x: 0.00001, y: 0.00001, z: 0.00001}
        inSlope: {x: 0, y: 0, z: 0}
        outSlope: {x: 0, y: 0, z: 0}
        tangentMode: 0
      - serializedVersion: 2
        time: 3.266667
        value: {x: 0.00001, y: 0.00001, z: 0.00001}
        inSlope: {x: 0, y: 0, z: 0}
        outSlope: {x: 0, y: 0, z: 0}
        tangentMode: 0
      - serializedVersion: 2
        time: 3.8000002
        value: {x: 0.00001, y: 0.00001, z: 0.00001}
        inSlope: {x: 0.000000004461076, y: 0.000000004461076, z: 0.000000004461076}
        outSlope: {x: 0.000000004461076, y: 0.000000004461076, z: 0.000000004461076}
        tangentMode: 0
      - serializedVersion: 2
        time: 3.8333335
        value: {x: 0.000010000297, y: 0.000010000297, z: 0.000010000297}
        inSlope: {x: 0.0009393177, y: 0.0009393177, z: 0.0009393177}
        outSlope: {x: 0.0009393177, y: 0.0009393177, z: 0.0009393177}
        tangentMode: 0
      - serializedVersion: 2
        time: 3.8666668
        value: {x: 0.000072621115, y: 0.000072621115, z: 0.000072621115}
        inSlope: {x: 0.0060871304, y: 0.0060871304, z: 0.0060871304}
        outSlope: {x: 0.0060871304, y: 0.0060871304, z: 0.0060871304}
        tangentMode: 0
      - serializedVersion: 2
        time: 3.9
        value: {x: 0.00041580858, y: 0.00041580858, z: 0.00041580858}
        inSlope: {x: 0.017997617, y: 0.017997617, z: 0.017997617}
        outSlope: {x: 0.017997617, y: 0.017997617, z: 0.017997617}
        tangentMode: 0
      - serializedVersion: 2
        time: 3.9333336
        value: {x: 0.0012724672, y: 0.0012724672, z: 0.0012724672}
        inSlope: {x: 0.036893543, y: 0.036893543, z: 0.036893543}
        outSlope: {x: 0.036893543, y: 0.036893543, z: 0.036893543}
        tangentMode: 0
      - serializedVersion: 2
        time: 4
        value: {x: 0.005457293, y: 0.005457293, z: 0.005457293}
        inSlope: {x: 0.09563524, y: 0.09563524, z: 0.09563524}
        outSlope: {x: 0.09563524, y: 0.09563524, z: 0.09563524}
        tangentMode: 0
      - serializedVersion: 2
        time: 4.2333336
        value: {x: 0.07051008, y: 0.07051008, z: 0.07051008}
        inSlope: {x: 0.52146894, y: 0.52146894, z: 0.52146894}
        outSlope: {x: 0.52146894, y: 0.52146894, z: 0.52146894}
        tangentMode: 0
      - serializedVersion: 2
        time: 4.366667
        value: {x: 0.16960312, y: 0.16960312, z: 0.16960312}
        inSlope: {x: 0.979596, y: 0.979596, z: 0.979596}
        outSlope: {x: 0.979596, y: 0.979596, z: 0.979596}
        tangentMode: 0
      - serializedVersion: 2
        time: 4.7000003
        value: {x: 0.62161523, y: 0.62161523, z: 0.62161523}
        inSlope: {x: 1.5836751, y: 1.5836751, z: 1.5836751}
        outSlope: {x: 1.5836751, y: 1.5836751, z: 1.5836751}
        tangentMode: 0
      - serializedVersion: 2
        time: 5.966667
        value: {x: 2.7445996, y: 2.7445996, z: 2.7445996}
        inSlope: {x: 0.04501824, y: 0.04501824, z: 0.04501824}
        outSlope: {x: 0.04501824, y: 0.04501824, z: 0.04501824}
        tangentMode: 0
      - serializedVersion: 2
        time: 6.0000005
        value: {x: 2.7445996, y: 2.7445996, z: 2.7445996}
        inSlope: {x: 0, y: 0, z: 0}
        outSlope: {x: 0, y: 0, z: 0}
        tangentMode: 0
      m_PreInfinity: 2
      m_PostInfinity: 2
      m_RotationOrder: 4
    path: LEAF001
  - curve:
      serializedVersion: 2
      m_Curve:
      - serializedVersion: 2
        time: 0
        value: {x: 0.00001, y: 0.00001, z: 0.00001}
        inSlope: {x: 0, y: 0, z: 0}
        outSlope: {x: 0, y: 0, z: 0}
        tangentMode: 0
      - serializedVersion: 2
        time: 1.6333334
        value: {x: 0.00001, y: 0.00001, z: 0.00001}
        inSlope: {x: 0, y: 0, z: 0}
        outSlope: {x: 0, y: 0, z: 0}
        tangentMode: 0
      - serializedVersion: 2
        time: 3.266667
        value: {x: 0.00001, y: 0.00001, z: 0.00001}
        inSlope: {x: 0, y: 0, z: 0}
        outSlope: {x: 0, y: 0, z: 0}
        tangentMode: 0
      - serializedVersion: 2
        time: 4.033334
        value: {x: 0.00001, y: 0.00001, z: 0.00001}
        inSlope: {x: 0, y: 0, z: 0}
        outSlope: {x: 0, y: 0, z: 0}
        tangentMode: 0
      - serializedVersion: 2
        time: 4.066667
        value: {x: 0.00001, y: 0.00001, z: 0.00001}
        inSlope: {x: 0.0000030176518, y: 0.0000030176518, z: 0.0000030176518}
        outSlope: {x: 0.0000030176518, y: 0.0000030176518, z: 0.0000030176518}
        tangentMode: 0
      - serializedVersion: 2
        time: 4.1000004
        value: {x: 0.000010201176, y: 0.000010201176, z: 0.000010201176}
        inSlope: {x: 0.26370195, y: 0.26370195, z: 0.26370195}
        outSlope: {x: 0.26370195, y: 0.26370195, z: 0.26370195}
        tangentMode: 0
      - serializedVersion: 2
        time: 4.1333337
        value: {x: 0.017590113, y: 0.017590113, z: 0.017590113}
        inSlope: {x: 0.95903635, y: 0.95903635, z: 0.95903635}
        outSlope: {x: 0.95903635, y: 0.95903635, z: 0.95903635}
        tangentMode: 0
      - serializedVersion: 2
        time: 4.166667
        value: {x: 0.0639459, y: 0.0639459, z: 0.0639459}
        inSlope: {x: 1.6788893, y: 1.6788893, z: 1.6788893}
        outSlope: {x: 1.6788893, y: 1.6788893, z: 1.6788893}
        tangentMode: 0
      - serializedVersion: 2
        time: 4.266667
        value: {x: 0.2801055, y: 0.2801055, z: 0.2801055}
        inSlope: {x: 2.1192436, y: 2.1192436, z: 2.1192436}
        outSlope: {x: 2.1192436, y: 2.1192436, z: 2.1192436}
        tangentMode: 0
      - serializedVersion: 2
        time: 4.3
        value: {x: 0.3460335, y: 0.3460335, z: 0.3460335}
        inSlope: {x: 1.6931045, y: 1.6931045, z: 1.6931045}
        outSlope: {x: 1.6931045, y: 1.6931045, z: 1.6931045}
        tangentMode: 0
      - serializedVersion: 2
        time: 4.4
        value: {x: 0.45551148, y: 0.45551148, z: 0.45551148}
        inSlope: {x: 0.8569058, y: 0.8569058, z: 0.8569058}
        outSlope: {x: 0.8569058, y: 0.8569058, z: 0.8569058}
        tangentMode: 0
      - serializedVersion: 2
        time: 5.066667
        value: {x: 0.9937065, y: 0.9937065, z: 0.9937065}
        inSlope: {x: 1.4937441, y: 1.4937441, z: 1.4937441}
        outSlope: {x: 1.4937441, y: 1.4937441, z: 1.4937441}
        tangentMode: 0
      - serializedVersion: 2
        time: 5.933334
        value: {x: 2.7434728, y: 2.7434728, z: 2.7434728}
        inSlope: {x: 0.08638028, y: 0.08638028, z: 0.08638028}
        outSlope: {x: 0.08638028, y: 0.08638028, z: 0.08638028}
        tangentMode: 0
      - serializedVersion: 2
        time: 6.0000005
        value: {x: 2.7434728, y: 2.7434728, z: 2.7434728}
        inSlope: {x: 0, y: 0, z: 0}
        outSlope: {x: 0, y: 0, z: 0}
        tangentMode: 0
      m_PreInfinity: 2
      m_PostInfinity: 2
      m_RotationOrder: 4
    path: leaf001
  - curve:
      serializedVersion: 2
      m_Curve:
      - serializedVersion: 2
        time: 0
        value: {x: 0.00001, y: 0.00001, z: 0.00001}
        inSlope: {x: 0, y: 0, z: 0}
        outSlope: {x: 0, y: 0, z: 0}
        tangentMode: 0
      - serializedVersion: 2
        time: 1.6333334
        value: {x: 0.00001, y: 0.00001, z: 0.00001}
        inSlope: {x: 0, y: 0, z: 0}
        outSlope: {x: 0, y: 0, z: 0}
        tangentMode: 0
      - serializedVersion: 2
        time: 3.266667
        value: {x: 0.00001, y: 0.00001, z: 0.00001}
        inSlope: {x: 0, y: 0, z: 0}
        outSlope: {x: 0, y: 0, z: 0}
        tangentMode: 0
      - serializedVersion: 2
        time: 4.766667
        value: {x: 0.00001, y: 0.00001, z: 0.00001}
        inSlope: {x: 0, y: 0, z: 0}
        outSlope: {x: 0, y: 0, z: 0}
        tangentMode: 0
      - serializedVersion: 2
        time: 4.8
        value: {x: 0.00001, y: 0.00001, z: 0.00001}
        inSlope: {x: 0.00000051994044, y: 0.00000051994044, z: 0.00000051994044}
        outSlope: {x: 0.00000051994044, y: 0.00000051994044, z: 0.00000051994044}
        tangentMode: 0
      - serializedVersion: 2
        time: 4.8333335
        value: {x: 0.000010034662, y: 0.000010034662, z: 0.000010034662}
        inSlope: {x: 0.109042406, y: 0.109042406, z: 0.109042406}
        outSlope: {x: 0.109042406, y: 0.109042406, z: 0.109042406}
        tangentMode: 0
      - serializedVersion: 2
        time: 4.866667
        value: {x: 0.0072794864, y: 0.0072794864, z: 0.0072794864}
        inSlope: {x: 0.3844335, y: 0.3844335, z: 0.3844335}
        outSlope: {x: 0.3844335, y: 0.3844335, z: 0.3844335}
        tangentMode: 0
      - serializedVersion: 2
        time: 4.9
        value: {x: 0.025638908, y: 0.025638908, z: 0.025638908}
        inSlope: {x: 0.6396648, y: 0.6396648, z: 0.6396648}
        outSlope: {x: 0.6396648, y: 0.6396648, z: 0.6396648}
        tangentMode: 0
      - serializedVersion: 2
        time: 4.9666667
        value: {x: 0.07497516, y: 0.07497516, z: 0.07497516}
        inSlope: {x: 0.685629, y: 0.685629, z: 0.685629}
        outSlope: {x: 0.685629, y: 0.685629, z: 0.685629}
        tangentMode: 0
      - serializedVersion: 2
        time: 5.0000005
        value: {x: 0.09563262, y: 0.09563262, z: 0.09563262}
        inSlope: {x: 0.538784, y: 0.538784, z: 0.538784}
        outSlope: {x: 0.538784, y: 0.538784, z: 0.538784}
        tangentMode: 0
      - serializedVersion: 2
        time: 5.1000004
        value: {x: 0.13555327, y: 0.13555327, z: 0.13555327}
        inSlope: {x: 0.3461213, y: 0.3461213, z: 0.3461213}
        outSlope: {x: 0.3461213, y: 0.3461213, z: 0.3461213}
        tangentMode: 0
      - serializedVersion: 2
        time: 5.266667
        value: {x: 0.20948072, y: 0.20948072, z: 0.20948072}
        inSlope: {x: 0.6755237, y: 0.6755237, z: 0.6755237}
        outSlope: {x: 0.6755237, y: 0.6755237, z: 0.6755237}
        tangentMode: 0
      - serializedVersion: 2
        time: 5.366667
        value: {x: 0.2843349, y: 0.2843349, z: 0.2843349}
        inSlope: {x: 0.72974217, y: 0.72974217, z: 0.72974217}
        outSlope: {x: 0.72974217, y: 0.72974217, z: 0.72974217}
        tangentMode: 0
      - serializedVersion: 2
        time: 5.566667
        value: {x: 0.51694375, y: 0.51694375, z: 0.51694375}
        inSlope: {x: 2.0230093, y: 2.0230093, z: 2.0230093}
        outSlope: {x: 2.0230093, y: 2.0230093, z: 2.0230093}
        tangentMode: 0
      - serializedVersion: 2
        time: 5.666667
        value: {x: 0.8066825, y: 0.8066825, z: 0.8066825}
        inSlope: {x: 3.8447704, y: 3.8447704, z: 3.8447704}
        outSlope: {x: 3.8447704, y: 3.8447704, z: 3.8447704}
        tangentMode: 0
      - serializedVersion: 2
        time: 5.966667
        value: {x: 1.9380684, y: 1.9380684, z: 1.9380684}
        inSlope: {x: 1.177625, y: 1.177625, z: 1.177625}
        outSlope: {x: 1.177625, y: 1.177625, z: 1.177625}
        tangentMode: 0
      - serializedVersion: 2
        time: 6.0000005
        value: {x: 1.9587109, y: 1.9587109, z: 1.9587109}
        inSlope: {x: 0.61927617, y: 0.61927617, z: 0.61927617}
        outSlope: {x: 0.61927617, y: 0.61927617, z: 0.61927617}
        tangentMode: 0
      m_PreInfinity: 2
      m_PostInfinity: 2
      m_RotationOrder: 4
    path: leaf002
  - curve:
      serializedVersion: 2
      m_Curve:
      - serializedVersion: 2
        time: 0
        value: {x: 0.00001, y: 0.00001, z: 0.00001}
        inSlope: {x: 0, y: 0, z: 0}
        outSlope: {x: 0, y: 0, z: 0}
        tangentMode: 0
      - serializedVersion: 2
        time: 1.6333334
        value: {x: 0.00001, y: 0.00001, z: 0.00001}
        inSlope: {x: 0, y: 0, z: 0}
        outSlope: {x: 0, y: 0, z: 0}
        tangentMode: 0
      - serializedVersion: 2
        time: 3.266667
        value: {x: 0.00001, y: 0.00001, z: 0.00001}
        inSlope: {x: 0, y: 0, z: 0}
        outSlope: {x: 0, y: 0, z: 0}
        tangentMode: 0
      - serializedVersion: 2
        time: 3.966667
        value: {x: 0.00001, y: 0.00001, z: 0.00001}
        inSlope: {x: 0, y: 0, z: 0}
        outSlope: {x: 0, y: 0, z: 0}
        tangentMode: 0
      - serializedVersion: 2
        time: 4
        value: {x: 0.00001, y: 0.00001, z: 0.00001}
        inSlope: {x: 0.0030489664, y: 0.0030489664, z: 0.0030489664}
        outSlope: {x: 0.0030489664, y: 0.0030489664, z: 0.0030489664}
        tangentMode: 0
      - serializedVersion: 2
        time: 4.033334
        value: {x: 0.00021326715, y: 0.00021326715, z: 0.00021326715}
        inSlope: {x: 0.0137367165, y: 0.0137367165, z: 0.0137367165}
        outSlope: {x: 0.0137367165, y: 0.0137367165, z: 0.0137367165}
        tangentMode: 0
      - serializedVersion: 2
        time: 4.066667
        value: {x: 0.0009257831, y: 0.0009257831, z: 0.0009257831}
        inSlope: {x: 0.03132517, y: 0.03132517, z: 0.03132517}
        outSlope: {x: 0.03132517, y: 0.03132517, z: 0.03132517}
        tangentMode: 0
      - serializedVersion: 2
        time: 4.166667
        value: {x: 0.0076592374, y: 0.0076592374, z: 0.0076592374}
        inSlope: {x: 0.1118138, y: 0.1118138, z: 0.1118138}
        outSlope: {x: 0.1118138, y: 0.1118138, z: 0.1118138}
        tangentMode: 0
      - serializedVersion: 2
        time: 4.566667
        value: {x: 0.17748944, y: 0.17748944, z: 0.17748944}
        inSlope: {x: 0.85005766, y: 0.85005766, z: 0.85005766}
        outSlope: {x: 0.85005766, y: 0.85005766, z: 0.85005766}
        tangentMode: 0
      - serializedVersion: 2
        time: 4.7000003
        value: {x: 0.32692015, y: 0.32692015, z: 0.32692015}
        inSlope: {x: 1.4346166, y: 1.4346166, z: 1.4346166}
        outSlope: {x: 1.4346166, y: 1.4346166, z: 1.4346166}
        tangentMode: 0
      - serializedVersion: 2
        time: 5.933334
        value: {x: 2.7408893, y: 2.7408893, z: 2.7408893}
        inSlope: {x: 0.21931314, y: 0.21931314, z: 0.21931314}
        outSlope: {x: 0.21931314, y: 0.21931314, z: 0.21931314}
        tangentMode: 0
      - serializedVersion: 2
        time: 6.0000005
        value: {x: 2.7445996, y: 2.7445996, z: 2.7445996}
        inSlope: {x: 0, y: 0, z: 0}
        outSlope: {x: 0, y: 0, z: 0}
        tangentMode: 0
      m_PreInfinity: 2
      m_PostInfinity: 2
      m_RotationOrder: 4
    path: LEAF002
  - curve:
      serializedVersion: 2
      m_Curve:
      - serializedVersion: 2
        time: 0
        value: {x: 0.00001, y: 0.00001, z: 0.00001}
        inSlope: {x: 0, y: 0, z: 0}
        outSlope: {x: 0, y: 0, z: 0}
        tangentMode: 0
      - serializedVersion: 2
        time: 1.6333334
        value: {x: 0.00001, y: 0.00001, z: 0.00001}
        inSlope: {x: 0, y: 0, z: 0}
        outSlope: {x: 0, y: 0, z: 0}
        tangentMode: 0
      - serializedVersion: 2
        time: 3.266667
        value: {x: 0.00001, y: 0.00001, z: 0.00001}
        inSlope: {x: 0, y: 0, z: 0}
        outSlope: {x: 0, y: 0, z: 0}
        tangentMode: 0
      - serializedVersion: 2
        time: 4.9333334
        value: {x: 0.00001, y: 0.00001, z: 0.00001}
        inSlope: {x: 0, y: 0, z: 0}
        outSlope: {x: 0, y: 0, z: 0}
        tangentMode: 0
      - serializedVersion: 2
        time: 5.266667
        value: {x: 0.00001, y: 0.00001, z: 0.00001}
        inSlope: {x: 0, y: 0, z: 0}
        outSlope: {x: 0, y: 0, z: 0}
        tangentMode: 0
      - serializedVersion: 2
        time: 5.3
        value: {x: 0.00001, y: 0.00001, z: 0.00001}
        inSlope: {x: 0.0000015748825, y: 0.0000015748825, z: 0.0000015748825}
        outSlope: {x: 0.0000015748825, y: 0.0000015748825, z: 0.0000015748825}
        tangentMode: 0
      - serializedVersion: 2
        time: 5.3333335
        value: {x: 0.000010104992, y: 0.000010104992, z: 0.000010104992}
        inSlope: {x: 0.33028784, y: 0.33028784, z: 0.33028784}
        outSlope: {x: 0.33028784, y: 0.33028784, z: 0.33028784}
        tangentMode: 0
      - serializedVersion: 2
        time: 5.366667
        value: {x: 0.022029169, y: 0.022029169, z: 0.022029169}
        inSlope: {x: 1.2729816, y: 1.2729816, z: 1.2729816}
        outSlope: {x: 1.2729816, y: 1.2729816, z: 1.2729816}
        tangentMode: 0
      - serializedVersion: 2
        time: 5.466667
        value: {x: 0.31380457, y: 0.31380457, z: 0.31380457}
        inSlope: {x: 4.297985, y: 4.297985, z: 4.297985}
        outSlope: {x: 4.297985, y: 4.297985, z: 4.297985}
        tangentMode: 0
      - serializedVersion: 2
        time: 5.933334
        value: {x: 2.7225807, y: 2.7225807, z: 2.7225807}
        inSlope: {x: 1.2729677, y: 1.2729677, z: 1.2729677}
        outSlope: {x: 1.2729677, y: 1.2729677, z: 1.2729677}
        tangentMode: 0
      - serializedVersion: 2
        time: 6.0000005
        value: {x: 2.7445996, y: 2.7445996, z: 2.7445996}
        inSlope: {x: 0, y: 0, z: 0}
        outSlope: {x: 0, y: 0, z: 0}
        tangentMode: 0
      m_PreInfinity: 2
      m_PostInfinity: 2
      m_RotationOrder: 4
    path: leaf
  - curve:
      serializedVersion: 2
      m_Curve:
      - serializedVersion: 2
        time: 0
        value: {x: 0.99999994, y: 0.99999994, z: 1.4274027}
        inSlope: {x: 0, y: 0, z: 0}
        outSlope: {x: 0, y: 0, z: 0}
        tangentMode: 0
      - serializedVersion: 2
        time: 1.6333334
        value: {x: 0.99999994, y: 0.99999994, z: 1.4274027}
        inSlope: {x: 0, y: 0, z: 0}
        outSlope: {x: 0, y: 0, z: 0}
        tangentMode: 0
      - serializedVersion: 2
        time: 3.266667
        value: {x: 0.99999994, y: 0.99999994, z: 1.4274027}
        inSlope: {x: 0, y: 0, z: 0}
        outSlope: {x: 0, y: 0, z: 0}
        tangentMode: 0
      - serializedVersion: 2
        time: 4.6333337
        value: {x: 1.0449184, y: 1.0449184, z: 1.4915195}
        inSlope: {x: 0.12238395, y: 0.12238395, z: 0.17468886}
        outSlope: {x: 0.12238395, y: 0.12238395, z: 0.17468886}
        tangentMode: 0
      - serializedVersion: 2
        time: 6.0000005
        value: {x: 1.183825, y: 1.183825, z: 1.689795}
        inSlope: {x: 0, y: 0, z: 0}
        outSlope: {x: 0, y: 0, z: 0}
        tangentMode: 0
      m_PreInfinity: 2
      m_PostInfinity: 2
      m_RotationOrder: 4
    path: Box001
  m_FloatCurves:
  - curve:
      serializedVersion: 2
      m_Curve:
      - serializedVersion: 2
        time: 0.6666667
        value: 0
        inSlope: 14.023379
        outSlope: 14.023379
        tangentMode: 0
      - serializedVersion: 2
        time: 0.70000005
        value: 0.46744636
        inSlope: 27.276323
        outSlope: 27.276323
        tangentMode: 0
      - serializedVersion: 2
        time: 0.9333334
        value: 24.169481
        inSlope: 156.27994
        outSlope: 156.27994
        tangentMode: 0
      - serializedVersion: 2
        time: 1.5333334
        value: 99.53255
        inSlope: -27.276333
        outSlope: -27.276333
        tangentMode: 0
      - serializedVersion: 2
        time: 2.266667
        value: 1.8184078
        inSlope: -52.627068
        outSlope: -52.627068
        tangentMode: 0
      - serializedVersion: 2
        time: 2.3000002
        value: 0.46743953
        inSlope: -27.276142
        outSlope: -27.276142
        tangentMode: 0
      - serializedVersion: 2
        time: 2.3333335
        value: 0
        inSlope: -7.0115995
        outSlope: -7.0115995
        tangentMode: 0
      - serializedVersion: 2
        time: 2.3666668
        value: 0
        inSlope: 0
        outSlope: 0
        tangentMode: 0
      - serializedVersion: 2
        time: 4
        value: 0
        inSlope: 0
        outSlope: 0
        tangentMode: 0
      m_PreInfinity: 2
      m_PostInfinity: 2
      m_RotationOrder: 4
    attribute: blendShape.Box002
    path: Box001
    classID: 137
    script: {fileID: 0}
  - curve:
      serializedVersion: 2
      m_Curve:
      - serializedVersion: 2
        time: 0.6666667
        value: 0
        inSlope: 0
        outSlope: 0
        tangentMode: 0
      - serializedVersion: 2
        time: 1.4666667
        value: 0
        inSlope: 5.9153e-11
        outSlope: 5.9153e-11
        tangentMode: 0
      - serializedVersion: 2
        time: 1.5000001
        value: 3.943544e-12
        inSlope: 6.488278
        outSlope: 6.488278
        tangentMode: 0
      - serializedVersion: 2
        time: 1.5333334
        value: 0.43255144
        inSlope: 25.250057
        outSlope: 25.250057
        tangentMode: 0
      - serializedVersion: 2
        time: 1.7666668
        value: 22.438871
        inSlope: 145.48618
        outSlope: 145.48618
        tangentMode: 0
      - serializedVersion: 2
        time: 2.3000002
        value: 94.279465
        inSlope: 33.529503
        outSlope: 33.529503
        tangentMode: 0
      - serializedVersion: 2
        time: 2.5000002
        value: 96.354904
        inSlope: 7.290324
        outSlope: 7.290324
        tangentMode: 0
      - serializedVersion: 2
        time: 4
        value: 100
        inSlope: 0.0011444185
        outSlope: 0.0011444185
        tangentMode: 0
      m_PreInfinity: 2
      m_PostInfinity: 2
      m_RotationOrder: 4
    attribute: blendShape.Box004
    path: Box001
    classID: 137
    script: {fileID: 0}
  - curve:
      serializedVersion: 2
      m_Curve:
      - serializedVersion: 2
        time: 0.6666667
        value: 0
        inSlope: 0.0010031876
        outSlope: 0.0010031876
        tangentMode: 0
      - serializedVersion: 2
        time: 0.70000005
        value: 0.000033439614
        inSlope: 0.003926066
        outSlope: 0.003926066
        tangentMode: 0
      - serializedVersion: 2
        time: 0.73333335
        value: 0.00026173756
        inSlope: 0.012650915
        outSlope: 0.012650915
        tangentMode: 0
      - serializedVersion: 2
        time: 0.7666667
        value: 0.00087683427
        inSlope: 0.027133469
        outSlope: 0.027133469
        tangentMode: 0
      - serializedVersion: 2
        time: 0.8333334
        value: 0.004035011
        inSlope: 0.07336769
        outSlope: 0.07336769
        tangentMode: 0
      - serializedVersion: 2
        time: 2.3000002
        value: 3.7647736
        inSlope: 6.9156
        outSlope: 6.9156
        tangentMode: 0
      - serializedVersion: 2
        time: 2.4
        value: 4.891092
        inSlope: 19.316044
        outSlope: 19.316044
        tangentMode: 0
      - serializedVersion: 2
        time: 3.966667
        value: 99.89098
        inSlope: 6.4546003
        outSlope: 6.4546003
        tangentMode: 0
      - serializedVersion: 2
        time: 4
        value: 100
        inSlope: 3.270519
        outSlope: 3.270519
        tangentMode: 0
      m_PreInfinity: 2
      m_PostInfinity: 2
      m_RotationOrder: 4
    attribute: blendShape.Box005
    path: Box001
    classID: 137
    script: {fileID: 0}
  - curve:
      serializedVersion: 2
      m_Curve:
      - serializedVersion: 2
        time: 0
        value: 100
        inSlope: -21.760939
        outSlope: -21.760939
        tangentMode: 0
      - serializedVersion: 2
        time: 0.13333334
        value: 89.59724
        inSlope: -143.26677
        outSlope: -143.26677
        tangentMode: 0
      - serializedVersion: 2
        time: 0.6
        value: 2.801164
        inSlope: -80.27518
        outSlope: -80.27518
        tangentMode: 0
      - serializedVersion: 2
        time: 0.6333334
        value: 0.725364
        inSlope: -42.017445
        outSlope: -42.017445
        tangentMode: 0
      - serializedVersion: 2
        time: 0.6666667
        value: 0
        inSlope: -21.760942
        outSlope: -21.760942
        tangentMode: 0
      m_PreInfinity: 2
      m_PostInfinity: 2
      m_RotationOrder: 4
    attribute: blendShape.Box006
    path: Box001
    classID: 137
    script: {fileID: 0}
  m_PPtrCurves: []
  m_SampleRate: 30
  m_WrapMode: 0
  m_Bounds:
    m_Center: {x: 0, y: 0, z: 0}
    m_Extent: {x: 0, y: 0, z: 0}
  m_ClipBindingConstant:
    genericBindings: []
    pptrCurveMapping: []
  m_AnimationClipSettings:
    serializedVersion: 2
    m_AdditiveReferencePoseClip: {fileID: 0}
    m_AdditiveReferencePoseTime: 0
    m_StartTime: 0
    m_StopTime: 6.0000005
    m_OrientationOffsetY: 0
    m_Level: 0
    m_CycleOffset: 0
    m_HasAdditiveReferencePose: 0
    m_LoopTime: 0
    m_LoopBlend: 0
    m_LoopBlendOrientation: 0
    m_LoopBlendPositionY: 0
    m_LoopBlendPositionXZ: 0
    m_KeepOriginalOrientation: 0
    m_KeepOriginalPositionY: 1
    m_KeepOriginalPositionXZ: 0
    m_HeightFromFeet: 0
    m_Mirror: 0
  m_EditorCurves: []
  m_EulerEditorCurves: []
  m_HasGenericRootTransform: 0
  m_HasMotionFloatCurves: 0
  m_GenerateMotionCurves: 0
  m_Events: []
